# Blender v2.79 (sub 0) OBJ File: ''
# www.blender.org
mtllib boots.mtl
o M_Miner_Clothing_Untitled.006
v 0.176907 0.047712 0.183502
v 0.196480 0.046149 0.171191
v 0.196020 0.059385 0.167311
v 0.175829 0.061033 0.180065
v 0.207132 0.043025 0.151844
v 0.205391 0.055756 0.148637
v 0.212324 0.033916 0.127122
v 0.211391 0.047334 0.126088
v 0.154603 0.058786 0.180372
v 0.154156 0.046154 0.182107
v 0.174032 0.071067 0.170480
v 0.155860 0.068527 0.172382
v 0.193737 0.067894 0.159084
v 0.201679 0.064042 0.141940
v 0.207056 0.058958 0.129057
v 0.211952 0.031272 0.106077
v 0.211725 0.044892 0.109577
v 0.207661 0.027867 0.071251
v 0.207794 0.041975 0.075772
v 0.196635 0.032311 0.044876
v 0.197167 0.045529 0.050028
v 0.206362 0.058809 0.117872
v 0.184651 0.072113 0.140590
v 0.167427 0.074765 0.147893
v 0.198687 0.067139 0.130223
v 0.149452 0.072416 0.149583
v 0.135273 0.053632 0.162691
v 0.134937 0.039510 0.164873
v 0.140090 0.064295 0.161627
v 0.121794 0.050037 0.138767
v 0.120866 0.031871 0.137920
v 0.132458 0.064078 0.146132
v 0.133433 0.037022 0.167615
v 0.154154 0.043994 0.185698
v 0.177127 0.045380 0.186475
v 0.198611 0.044167 0.173359
v 0.209496 0.040503 0.153609
v 0.214632 0.031134 0.127206
v 0.213513 0.028344 0.104194
v 0.209142 0.025221 0.070057
v 0.198439 0.029189 0.042938
v 0.201827 0.058830 0.094100
v 0.192647 0.062201 0.053890
v 0.184460 0.039040 0.020913
v 0.185492 0.049921 0.023894
v 0.184887 0.064528 0.030222
v 0.174833 0.042741 -0.000049
v 0.176172 0.053933 0.002904
v 0.178338 0.066127 0.011779
v 0.182347 0.074404 0.029371
v 0.109118 0.092445 0.058402
v 0.188878 0.072331 0.059094
v 0.178138 0.070398 0.121753
v 0.161059 0.071838 0.126740
v 0.189611 0.067570 0.110331
v 0.188235 0.065991 0.076636
v 0.180271 0.074725 0.078932
v 0.143333 0.071522 0.131038
v 0.126908 0.065686 0.134557
v 0.114663 0.049558 0.121101
v 0.113678 0.028861 0.118799
v 0.120169 0.028675 0.140788
v 0.111636 0.026409 0.118654
v 0.106786 0.050586 0.096897
v 0.108276 0.028442 0.090726
v 0.116227 0.067715 0.097449
v 0.127062 0.075517 0.095409
v 0.140824 0.080929 0.090320
v 0.165489 0.080443 0.082057
v 0.135198 0.090531 0.079654
v 0.120189 0.081778 0.078912
v 0.103014 0.074585 0.070461
v 0.100221 0.055734 0.067587
v 0.106018 0.035548 0.061306
v 0.163529 0.040448 -0.025430
v 0.165123 0.054277 -0.025862
v 0.163395 0.075481 -0.031677
v 0.167465 0.098926 -0.030182
v 0.174445 0.090460 -0.002068
v 0.176943 0.092552 0.034982
v 0.150541 0.088774 0.072758
v 0.164134 0.107814 0.043089
v 0.180544 0.079223 0.063689
v 0.165770 0.091003 0.068805
v 0.143767 0.106724 0.054558
v 0.125357 0.101280 0.055728
v 0.137098 0.136453 0.032464
v 0.161799 0.123744 0.026055
v 0.115870 0.123518 0.041412
v 0.170336 0.115578 0.004313
v 0.172648 0.108538 -0.010187
v 0.167136 0.157182 -0.010907
v 0.167951 0.164790 0.013163
v 0.154843 0.037188 -0.049455
v 0.153655 0.054990 -0.050092
v 0.153385 0.076413 -0.047929
v 0.154339 0.093363 -0.047514
v 0.136817 0.080422 -0.069074
v 0.137903 0.101873 -0.068178
v 0.137221 0.060555 -0.072949
v 0.137497 0.046014 -0.075163
v 0.158637 0.164377 0.014853
v 0.172780 0.199601 0.004638
v 0.166677 0.199900 0.005557
v 0.095331 0.201772 0.026764
v 0.108912 0.163216 0.030239
v 0.133879 0.203153 0.027660
v 0.136373 0.165399 0.029666
v 0.138863 0.130114 0.036101
v 0.104674 0.119258 0.032618
v 0.100112 0.162774 0.036558
v 0.093159 0.156346 0.022925
v 0.119435 0.131932 0.032473
v 0.151380 0.133534 0.024458
v 0.162607 0.135474 -0.036334
v 0.167083 0.143255 -0.021586
v 0.154880 0.133523 -0.048867
v 0.139740 0.133629 -0.063237
v 0.095128 0.075418 0.047737
v 0.090850 0.111894 0.020959
v 0.091898 0.065344 0.034257
v 0.097389 0.042109 0.022556
v 0.095326 0.038860 0.022112
v 0.104272 0.032707 0.060835
v 0.106342 0.025637 0.091085
v 0.106988 -0.000632 0.091028
v 0.111477 0.000425 0.120872
v 0.121059 0.003659 0.145760
v 0.134613 0.010924 0.173292
v 0.154785 0.017810 0.190518
v 0.178177 0.019591 0.190872
v 0.199229 0.018495 0.178117
v 0.211150 0.014664 0.157639
v 0.215132 0.007100 0.129873
v 0.079966 0.103175 0.007995
v 0.084214 0.060358 -0.001795
v 0.090528 0.039714 -0.000583
v 0.088613 0.037141 0.000273
v 0.097967 0.012995 0.011959
v 0.108939 0.012496 0.055084
v 0.107638 0.010010 0.066040
v 0.109852 0.001050 0.063893
v 0.146754 0.000349 0.056527
v 0.159898 -0.000353 0.084964
v 0.163902 0.001189 0.112308
v 0.165782 0.003995 0.136624
v 0.170860 0.013101 0.170535
v 0.209621 0.000398 0.067940
v 0.215520 0.002450 0.101042
v 0.193149 0.001404 0.037319
v 0.186026 0.036912 0.019466
v 0.176629 0.040426 -0.000688
v 0.166005 0.038016 -0.026276
v 0.156343 0.035074 -0.050172
v 0.138415 0.044898 -0.076801
v 0.111935 0.049265 -0.089345
v 0.111416 0.066117 -0.086663
v 0.112515 0.087134 -0.082856
v 0.086810 0.048843 -0.081505
v 0.086919 0.065183 -0.079238
v 0.086943 0.086036 -0.075529
v 0.088631 0.100319 -0.072858
v 0.113560 0.102276 -0.079904
v 0.115173 0.127097 -0.076889
v 0.079178 0.059012 -0.023478
v 0.122742 0.135437 -0.074254
v 0.109795 0.144291 -0.081494
v 0.120660 0.152940 -0.076891
v 0.110908 0.171107 -0.081161
v 0.120454 0.171952 -0.075788
v 0.169553 0.195073 -0.022431
v 0.168910 0.153249 -0.023234
v 0.164798 0.146451 -0.038674
v 0.164894 0.183502 -0.039734
v 0.157903 0.144747 -0.050668
v 0.158097 0.177392 -0.053073
v 0.144024 0.143796 -0.064883
v 0.146186 0.173275 -0.066407
v 0.091394 0.144745 -0.077175
v 0.090462 0.169844 -0.077367
v 0.092550 0.126844 -0.071523
v 0.080069 0.036457 -0.028382
v 0.076742 0.079778 -0.054293
v 0.075803 0.061632 -0.056339
v 0.074615 0.044173 -0.057434
v 0.112175 0.047961 -0.091329
v 0.077254 0.080492 -0.011881
v 0.072186 0.141900 -0.049463
v 0.085178 0.146838 0.009766
v 0.077552 0.139309 -0.006109
v 0.074912 0.093042 -0.025392
v 0.075023 0.101899 -0.050498
v 0.083878 0.134852 -0.063222
v 0.085810 0.145939 -0.070430
v 0.085384 0.170225 -0.070703
v 0.076716 0.132750 -0.049630
v 0.073994 0.132007 -0.027039
v 0.069672 0.142563 -0.028143
v 0.072647 0.148534 -0.007509
v 0.076830 0.154927 0.002944
v 0.070069 0.179982 -0.015829
v 0.078305 0.194307 0.005924
v 0.069361 0.174266 -0.033317
v 0.072299 0.170364 -0.053577
v 0.172198 0.204878 -0.003680
v 0.166473 0.206378 -0.001536
v 0.168309 0.204511 -0.024918
v 0.143258 0.186519 -0.064747
v 0.158921 0.195423 -0.042089
v 0.150521 0.189757 -0.055774
v 0.164184 0.216548 0.000343
v 0.164303 0.216783 0.005578
v 0.131561 0.220680 0.022562
v 0.095660 0.216677 0.023117
v 0.090854 0.201977 0.029646
v 0.108068 0.140187 0.035810
v 0.162867 0.142746 0.018094
v 0.090495 0.205658 0.022574
v 0.086216 0.204138 0.023419
v 0.092529 0.213441 0.017841
v 0.086285 0.000145 -0.010676
v 0.078060 0.034690 -0.027700
v 0.096689 0.000150 0.007266
v 0.077746 0.000155 -0.031825
v 0.131839 0.000540 -0.000707
v 0.132864 0.009249 0.002855
v 0.113715 0.002703 0.058135
v 0.125322 0.009102 0.017128
v 0.154428 0.008832 0.009766
v 0.165286 0.000320 -0.019617
v 0.166307 0.010925 -0.013215
v 0.185862 0.003658 0.032638
v 0.191323 0.009400 0.032669
v 0.177698 0.013801 0.016838
v 0.170851 0.015451 0.001048
v 0.169168 0.006002 0.022461
v 0.154660 0.000934 -0.050428
v 0.073019 0.042200 -0.058207
v 0.073904 0.005562 -0.064260
v 0.086179 0.046622 -0.083892
v 0.086081 0.013070 -0.086915
v 0.139150 0.004679 -0.079203
v 0.111009 0.013236 -0.094798
v 0.118613 0.000741 -0.037899
v 0.105823 0.004573 -0.069921
v 0.164416 0.006483 -0.026160
v 0.073683 0.183652 -0.054648
v 0.085899 0.181666 -0.067537
v 0.070744 0.187653 -0.035688
v 0.071792 0.193108 -0.019913
v 0.077616 0.202748 0.004263
v 0.083371 0.206674 0.014324
v 0.112106 0.219309 0.025503
v 0.114529 0.203508 0.030619
v 0.121581 0.164434 0.032119
v 0.148271 0.165004 0.023044
v 0.151904 0.202120 0.018401
v 0.151161 0.219231 0.014992
v 0.148433 0.221196 0.010044
v 0.129625 0.222323 0.016955
v 0.111702 0.221935 0.019817
v 0.120969 0.183394 -0.072622
v -0.176910 0.047752 0.183477
v -0.196482 0.046189 0.171166
v -0.196023 0.059425 0.167286
v -0.175832 0.061073 0.180039
v -0.207135 0.043065 0.151819
v -0.205394 0.055796 0.148612
v -0.212326 0.033956 0.127097
v -0.211394 0.047374 0.126063
v -0.154606 0.058826 0.180347
v -0.154158 0.046194 0.182082
v -0.174034 0.071107 0.170455
v -0.155862 0.068567 0.172357
v -0.193739 0.067934 0.159058
v -0.201681 0.064082 0.141915
v -0.207058 0.058998 0.129032
v -0.211955 0.031312 0.106052
v -0.211727 0.044932 0.109551
v -0.207691 0.027880 0.071246
v -0.207825 0.041990 0.075762
v -0.196680 0.032319 0.044864
v -0.197211 0.045539 0.050012
v -0.206364 0.058849 0.117847
v -0.184653 0.072153 0.140565
v -0.167430 0.074805 0.147868
v -0.198690 0.067179 0.130198
v -0.149455 0.072456 0.149558
v -0.135275 0.053672 0.162666
v -0.134939 0.039550 0.164848
v -0.140092 0.064335 0.161602
v -0.121796 0.050077 0.138742
v -0.120868 0.031911 0.137895
v -0.132460 0.064118 0.146107
v -0.133435 0.037062 0.167589
v -0.154156 0.044034 0.185673
v -0.177129 0.045420 0.186450
v -0.198613 0.044207 0.173333
v -0.209498 0.040543 0.153584
v -0.214634 0.031174 0.127181
v -0.213528 0.028366 0.104191
v -0.209173 0.025234 0.070053
v -0.198484 0.029196 0.042928
v -0.201853 0.058851 0.094082
v -0.192694 0.062213 0.053867
v -0.184517 0.039044 0.020893
v -0.185550 0.049925 0.023871
v -0.184945 0.064534 0.030194
v -0.174901 0.042740 -0.000074
v -0.176240 0.053932 0.002875
v -0.178405 0.066129 0.011748
v -0.182408 0.074411 0.029339
v -0.109169 0.092476 0.058330
v -0.188925 0.072345 0.059066
v -0.178141 0.070438 0.121728
v -0.161061 0.071878 0.126714
v -0.189614 0.067610 0.110306
v -0.188271 0.066010 0.076609
v -0.180309 0.074746 0.078899
v -0.143336 0.071562 0.131013
v -0.126911 0.065726 0.134532
v -0.114674 0.049607 0.121045
v -0.113686 0.028909 0.118749
v -0.120172 0.028715 0.140763
v -0.111644 0.026457 0.118603
v -0.106809 0.050629 0.096837
v -0.108298 0.028483 0.090673
v -0.116253 0.067756 0.097388
v -0.127092 0.075555 0.095351
v -0.140857 0.080962 0.090266
v -0.165526 0.080469 0.082015
v -0.135238 0.090563 0.079595
v -0.120228 0.081813 0.078849
v -0.103055 0.074620 0.070392
v -0.100260 0.055769 0.067522
v -0.106055 0.035580 0.061250
v -0.163608 0.040442 -0.025461
v -0.165206 0.054270 -0.025896
v -0.163485 0.075474 -0.031718
v -0.167559 0.098917 -0.030228
v -0.174524 0.090459 -0.002108
v -0.177005 0.092561 0.034942
v -0.150584 0.088800 0.072707
v -0.164195 0.107828 0.043038
v -0.180590 0.079240 0.063655
v -0.165815 0.091025 0.068760
v -0.143823 0.106747 0.054498
v -0.125411 0.101307 0.055661
v -0.137185 0.136453 0.032398
v -0.161885 0.123742 0.025990
v -0.115955 0.123520 0.041343
v -0.170424 0.115577 0.004249
v -0.172736 0.108539 -0.010251
v -0.167230 0.157183 -0.010967
v -0.168044 0.164788 0.013103
v -0.154933 0.037177 -0.049488
v -0.153749 0.054979 -0.050132
v -0.153483 0.076402 -0.047975
v -0.154440 0.093353 -0.047565
v -0.136926 0.080409 -0.069130
v -0.138016 0.101860 -0.068239
v -0.137327 0.060541 -0.072998
v -0.137601 0.045999 -0.075208
v -0.158730 0.164377 0.014792
v -0.172878 0.199600 0.004582
v -0.166774 0.199900 0.005500
v -0.095426 0.201777 0.026699
v -0.109003 0.163219 0.030172
v -0.133975 0.203154 0.027600
v -0.136464 0.165400 0.029603
v -0.138949 0.130113 0.036034
v -0.104759 0.119262 0.032547
v -0.100202 0.162778 0.036490
v -0.093249 0.156352 0.022856
v -0.119521 0.131934 0.032404
v -0.151468 0.133533 0.024393
v -0.162701 0.135478 -0.036397
v -0.167176 0.143257 -0.021648
v -0.154975 0.133530 -0.048931
v -0.139837 0.133639 -0.063303
v -0.095180 0.075448 0.047663
v -0.090936 0.111901 0.020886
v -0.091955 0.065371 0.034185
v -0.097446 0.042131 0.022494
v -0.095382 0.038883 0.022050
v -0.104308 0.032740 0.060779
v -0.106363 0.025679 0.091032
v -0.107003 -0.000591 0.090982
v -0.111478 0.000474 0.120828
v -0.121061 0.003699 0.145735
v -0.134615 0.010964 0.173267
v -0.154787 0.017850 0.190493
v -0.178179 0.019631 0.190847
v -0.199231 0.018535 0.178092
v -0.211152 0.014704 0.157614
v -0.215135 0.007140 0.129848
v -0.080043 0.103197 0.007906
v -0.084287 0.060376 -0.001869
v -0.090596 0.039731 -0.000648
v -0.088679 0.037159 0.000207
v -0.098023 0.013014 0.011905
v -0.108974 0.012526 0.055035
v -0.107667 0.010044 0.065992
v -0.109881 0.001082 0.063849
v -0.146785 0.000371 0.056500
v -0.159916 -0.000325 0.084944
v -0.163908 0.001224 0.112290
v -0.165785 0.004035 0.136599
v -0.170862 0.013141 0.170509
v -0.209648 0.000410 0.067943
v -0.215531 0.002471 0.101048
v -0.193190 0.001411 0.037315
v -0.186083 0.036915 0.019448
v -0.176697 0.040425 -0.000712
v -0.166084 0.038010 -0.026305
v -0.156433 0.035062 -0.050205
v -0.138520 0.044883 -0.076845
v -0.112047 0.049251 -0.089403
v -0.111530 0.066104 -0.086726
v -0.112632 0.087122 -0.082925
v -0.086918 0.048837 -0.081575
v -0.087030 0.065178 -0.079312
v -0.087056 0.086032 -0.075610
v -0.088746 0.100315 -0.072942
v -0.113679 0.102264 -0.079977
v -0.115270 0.127111 -0.076958
v -0.079261 0.059025 -0.023554
v -0.122840 0.135450 -0.074321
v -0.109895 0.144307 -0.081562
v -0.120760 0.152953 -0.076957
v -0.111010 0.171122 -0.081226
v -0.120556 0.171966 -0.075852
v -0.169652 0.195075 -0.022487
v -0.169005 0.153252 -0.023295
v -0.164893 0.146455 -0.038736
v -0.164994 0.183506 -0.039793
v -0.158000 0.144753 -0.050731
v -0.158198 0.177399 -0.053132
v -0.144122 0.143806 -0.064947
v -0.146287 0.173284 -0.066468
v -0.091493 0.144762 -0.077245
v -0.090564 0.169861 -0.077435
v -0.092646 0.126860 -0.071594
v -0.080149 0.036469 -0.028451
v -0.076844 0.079782 -0.054376
v -0.075902 0.061635 -0.056418
v -0.074711 0.044177 -0.057508
v -0.112287 0.047947 -0.091386
v -0.077336 0.080509 -0.011964
v -0.072281 0.141917 -0.049536
v -0.085269 0.146847 0.009695
v -0.077643 0.139321 -0.006182
v -0.075003 0.093056 -0.025480
v -0.075128 0.101905 -0.050589
v -0.083975 0.134868 -0.063294
v -0.085908 0.145956 -0.070501
v -0.085486 0.170242 -0.070771
v -0.076810 0.132766 -0.049702
v -0.074087 0.132021 -0.027112
v -0.069765 0.142578 -0.028216
v -0.072739 0.148546 -0.007581
v -0.076922 0.154937 0.002873
v -0.070166 0.179995 -0.015899
v -0.078402 0.194317 0.005856
v -0.069459 0.174281 -0.033387
v -0.072399 0.170381 -0.053647
v -0.172297 0.204878 -0.003736
v -0.166572 0.206379 -0.001592
v -0.168411 0.204513 -0.024974
v -0.143361 0.186528 -0.064807
v -0.159023 0.195429 -0.042147
v -0.150624 0.189765 -0.055833
v -0.164284 0.216548 0.000288
v -0.164402 0.216783 0.005522
v -0.131659 0.220682 0.022503
v -0.095758 0.216683 0.023053
v -0.090950 0.201983 0.029581
v -0.108155 0.140190 0.035741
v -0.162957 0.142744 0.018031
v -0.090592 0.205665 0.022509
v -0.086312 0.204145 0.023353
v -0.092627 0.213448 0.017777
v -0.086349 0.000160 -0.010732
v -0.078140 0.034702 -0.027770
v -0.096745 0.000168 0.007215
v -0.077820 0.000166 -0.031884
v -0.131898 0.000549 -0.000741
v -0.132923 0.009258 0.002819
v -0.113747 0.002733 0.058092
v -0.125374 0.009117 0.017089
v -0.154484 0.008838 0.009741
v -0.165354 0.000315 -0.019634
v -0.166374 0.010922 -0.013236
v -0.185906 0.003664 0.032629
v -0.191368 0.009405 0.032661
v -0.177751 0.013805 0.016822
v -0.170912 0.015452 0.001028
v -0.169217 0.006009 0.022444
v -0.154742 0.000922 -0.050451
v -0.073114 0.042204 -0.058282
v -0.073995 0.005564 -0.064322
v -0.086288 0.046615 -0.083962
v -0.086184 0.013063 -0.086975
v -0.139247 0.004662 -0.079234
v -0.111116 0.013220 -0.094845
v -0.118689 0.000741 -0.037939
v -0.105916 0.004566 -0.069969
v -0.164488 0.006477 -0.026180
v -0.073784 0.183668 -0.054716
v -0.086002 0.181683 -0.067604
v -0.070844 0.187668 -0.035757
v -0.071891 0.193121 -0.019981
v -0.077714 0.202758 0.004196
v -0.083468 0.206683 0.014259
v -0.112203 0.219314 0.025441
v -0.114625 0.203512 0.030557
v -0.121671 0.164436 0.032054
v -0.148363 0.165004 0.022982
v -0.152000 0.202120 0.018343
v -0.151260 0.219232 0.014935
v -0.148533 0.221197 0.009987
v -0.129724 0.222325 0.016896
v -0.111801 0.221940 0.019756
v -0.121072 0.183407 -0.072685
vt 0.604240 0.468300
vt 0.583530 0.464040
vt 0.587760 0.431470
vt 0.608490 0.430470
vt 0.589320 0.503410
vt 0.570050 0.493010
vt 0.568430 0.548000
vt 0.550810 0.530340
vt 0.582040 0.403470
vt 0.600480 0.393580
vt 0.569220 0.433480
vt 0.566200 0.409840
vt 0.566650 0.463720
vt 0.552400 0.488270
vt 0.541610 0.509970
vt 0.538360 0.578950
vt 0.528640 0.552810
vt 0.483670 0.623620
vt 0.474860 0.594350
vt 0.425710 0.649500
vt 0.419240 0.618940
vt 0.524970 0.520600
vt 0.535730 0.463410
vt 0.536020 0.434100
vt 0.532520 0.492560
vt 0.532230 0.406090
vt 0.559310 0.370270
vt 0.576570 0.352390
vt 0.550820 0.387200
vt 0.519610 0.340290
vt 0.535150 0.307320
vt 0.525500 0.374820
vt 0.583640 0.348650
vt 0.607130 0.392680
vt 0.614590 0.429370
vt 0.610100 0.469960
vt 0.595880 0.505960
vt 0.573470 0.553260
vt 0.539730 0.587630
vt 0.486550 0.631790
vt 0.428140 0.658140
vt 0.483433 0.542001
vt 0.402470 0.583300
vt 0.368870 0.668940
vt 0.360940 0.645150
vt 0.352680 0.610480
vt 0.320500 0.691650
vt 0.312840 0.666850
vt 0.314070 0.632880
vt 0.336460 0.593480
vt 0.396510 0.556660
vt 0.501052 0.468076
vt 0.498423 0.435306
vt 0.493178 0.497963
vt 0.433950 0.537220
vt 0.422190 0.512840
vt 0.499276 0.401120
vt 0.504000 0.368196
vt 0.484780 0.322910
vt 0.498680 0.280170
vt 0.543550 0.303340
vt 0.500730 0.272840
vt 0.431700 0.303600
vt 0.442170 0.252450
vt 0.421990 0.347620
vt 0.416100 0.378620
vt 0.408030 0.414850
vt 0.409720 0.476970
vt 0.371620 0.412240
vt 0.371770 0.371490
vt 0.352870 0.327400
vt 0.364950 0.284730
vt 0.375020 0.237030
vt 0.273980 0.728880
vt 0.257380 0.704150
vt 0.220880 0.674750
vt 0.196990 0.631200
vt 0.256720 0.608870
vt 0.318250 0.551960
vt 0.372090 0.451180
vt 0.389120 0.530120
vt 0.371730 0.488040
vt 0.301140 0.504880
vt 0.309540 0.450340
vt 0.306770 0.404620
vt 0.243400 0.406790
vt 0.242120 0.458540
vt 0.250590 0.510980
vt 0.232770 0.558910
vt 0.219130 0.589650
vt 0.792220 0.155080
vt 0.767960 0.107340
vt 0.809840 0.084150
vt 0.874460 0.107420
vt 0.231280 0.765200
vt 0.209240 0.735600
vt 0.186890 0.696430
vt 0.168540 0.667010
vt 0.136260 0.720570
vt 0.115340 0.682150
vt 0.154740 0.758440
vt 0.169690 0.785680
vt 0.763540 0.089930
vt 0.820710 0.051730
vt 0.710670 0.140920
vt 0.702890 0.131740
vt 0.671080 0.059580
vt 0.747390 0.037420
vt 0.755990 0.064420
vt 0.688160 0.096340
vt 0.781210 0.708980
vt 0.776550 0.743020
vt 0.690030 0.725730
vt 0.700590 0.683020
vt 0.806420 0.020000
vt 0.844030 0.745040
vt 0.852140 0.707040
vt 0.876670 0.698390
vt 0.860620 0.748330
vt 0.311390 0.360320
vt 0.228200 0.379100
vt 0.838140 0.679160
vt 0.790590 0.659480
vt 0.806820 0.630480
vt 0.885520 0.670090
vt 0.785670 0.681180
vt 0.845250 0.205040
vt 0.824270 0.173560
vt 0.895800 0.136280
vt 0.923170 0.178290
vt 0.821670 0.015290
vt 0.848700 0.062010
vt 0.941290 0.224010
vt 0.853340 0.236790
vt 0.930650 0.283970
vt 0.859120 0.282210
vt 0.303020 0.303140
vt 0.208360 0.341870
vt 0.286650 0.268100
vt 0.295400 0.209240
vt 0.297540 0.199740
vt 0.377260 0.227520
vt 0.446070 0.244800
vt 0.472470 0.192200
vt 0.532580 0.223780
vt 0.583160 0.261100
vt 0.631090 0.316340
vt 0.656820 0.374630
vt 0.668560 0.427530
vt 0.658480 0.481430
vt 0.640830 0.530590
vt 0.610660 0.586390
vt 0.187970 0.306110
vt 0.865340 0.459050
vt 0.865220 0.510480
vt 0.839990 0.506890
vt 0.843060 0.461560
vt 0.220340 0.215790
vt 0.248490 0.177790
vt 0.252790 0.171100
vt 0.307080 0.139550
vt 0.388830 0.182450
vt 0.412730 0.188600
vt 0.417230 0.168210
vt 0.644410 0.879560
vt 0.710320 0.864660
vt 0.701010 0.977290
vt 0.645680 0.960460
vt 0.768930 0.868320
vt 0.764680 0.980350
vt 0.820880 0.874850
vt 0.820580 0.971090
vt 0.895580 0.878740
vt 0.885010 0.954780
vt 0.942050 0.872250
vt 0.931410 0.920430
vt 0.698340 0.754270
vt 0.769170 0.756860
vt 0.829230 0.770060
vt 0.567650 0.633970
vt 0.512300 0.677990
vt 0.448980 0.717160
vt 0.628050 0.773740
vt 0.371200 0.675870
vt 0.324920 0.697570
vt 0.278710 0.735030
vt 0.235400 0.771750
vt 0.171740 0.793390
vt 0.179620 0.188700
vt 0.195340 0.141380
vt 0.098430 0.192610
vt 0.115200 0.156000
vt 0.176220 0.241830
vt 0.058190 0.827290
vt 0.047820 0.797830
vt 0.096170 0.778820
vt 0.112380 0.811110
vt 0.031010 0.759270
vt 0.080090 0.737940
vt 0.022040 0.731540
vt 0.068580 0.708970
vt 0.860320 0.326730
vt 0.132820 0.120760
vt 0.935970 0.343650
vt 0.879830 0.343080
vt 0.842380 0.356280
vt 0.824580 0.335030
vt 0.798950 0.359150
vt 0.786410 0.343250
vt 0.717780 0.188450
vt 0.803220 0.179630
vt 0.821320 0.210880
vt 0.745150 0.222660
vt 0.828500 0.239060
vt 0.761940 0.251680
vt 0.835180 0.280110
vt 0.775510 0.286690
vt 0.842190 0.391470
vt 0.799770 0.387510
vt 0.880410 0.396800
vt 0.941990 0.402180
vt 0.062080 0.137200
vt 0.047420 0.179670
vt 0.073990 0.103910
vt 0.115430 0.818600
vt 0.137220 0.250280
vt 0.829920 0.597240
vt 0.905880 0.630310
vt 0.847630 0.558260
vt 0.928220 0.593410
vt 0.081760 0.238190
vt 0.035470 0.208130
vt 0.861720 0.424660
vt 0.935970 0.460880
vt 0.838510 0.408930
vt 0.790776 0.401010
vt 0.953310 0.517860
vt 0.825550 0.550840
vt 0.811430 0.574520
vt 0.727360 0.581360
vt 0.759050 0.530550
vt 0.772690 0.492800
vt 0.784080 0.448660
vt 0.701030 0.153590
vt 0.690610 0.147590
vt 0.697420 0.194650
vt 0.719620 0.236340
vt 0.736350 0.269970
vt 0.747640 0.293690
vt 0.752170 0.326840
vt 0.670120 0.141780
vt 0.672750 0.132740
vt 0.658060 0.110210
vt 0.636680 0.076760
vt 0.648530 0.708500
vt 0.668790 0.667640
vt 0.713060 0.644730
vt 0.718440 0.635960
vt 0.704190 0.629110
vt 0.712420 0.622240
vt 0.682450 0.639910
vt 0.682370 0.625580
vt 0.273570 0.086980
vt 0.312580 0.108950
vt 0.199600 0.134160
vt 0.230230 0.062680
vt 0.524770 0.962540
vt 0.494040 0.961400
vt 0.502380 0.883570
vt 0.520750 0.882690
vt 0.635910 0.976750
vt 0.634040 0.950670
vt 0.615920 0.966760
vt 0.548620 0.907100
vt 0.548510 0.839880
vt 0.583410 0.815680
vt 0.481430 0.804120
vt 0.506200 0.802880
vt 0.613670 0.785790
vt 0.609290 0.769770
vt 0.430380 0.708940
vt 0.388510 0.726800
vt 0.355310 0.744280
vt 0.571080 0.791810
vt 0.537310 0.800430
vt 0.333810 0.769610
vt 0.315490 0.792920
vt 0.334440 0.796010
vt 0.134930 0.112610
vt 0.160280 0.036760
vt 0.072240 0.094500
vt 0.101560 0.025200
vt 0.275530 0.834610
vt 0.211820 0.868560
vt 0.139150 0.885880
vt 0.060540 0.835370
vt 0.085390 0.904210
vt 0.417000 0.887480
vt 0.413460 0.807950
vt 0.344490 0.892930
vt 0.346660 0.821170
vt 0.295080 0.867040
vt 0.295080 0.921310
vt 0.335330 0.959800
vt 0.402890 0.973080
vt 0.451090 0.970060
vt 0.754690 0.443020
vt 0.757610 0.398907
vt 0.742930 0.485990
vt 0.729570 0.521610
vt 0.707830 0.578360
vt 0.703060 0.603900
vt 0.648880 0.115590
vt 0.626870 0.083540
vt 0.636180 0.699620
vt 0.656200 0.660540
vt 0.925250 0.823120
vt 0.887110 0.789920
vt 0.792920 0.401386
vt 0.786410 0.343250
vt 0.604240 0.468300
vt 0.608490 0.430470
vt 0.587760 0.431470
vt 0.583530 0.464040
vt 0.589320 0.503410
vt 0.570050 0.493010
vt 0.550810 0.530340
vt 0.568430 0.548000
vt 0.582040 0.403470
vt 0.600480 0.393580
vt 0.566200 0.409840
vt 0.569220 0.433480
vt 0.566650 0.463720
vt 0.552400 0.488270
vt 0.541610 0.509970
vt 0.528640 0.552810
vt 0.538360 0.578950
vt 0.474860 0.594350
vt 0.483670 0.623620
vt 0.419240 0.618940
vt 0.425710 0.649500
vt 0.524970 0.520600
vt 0.536020 0.434100
vt 0.535730 0.463410
vt 0.532520 0.492560
vt 0.532230 0.406090
vt 0.576570 0.352390
vt 0.559310 0.370270
vt 0.550820 0.387200
vt 0.535150 0.307320
vt 0.519610 0.340290
vt 0.525500 0.374820
vt 0.583640 0.348650
vt 0.607130 0.392680
vt 0.614590 0.429370
vt 0.610100 0.469960
vt 0.595880 0.505960
vt 0.573470 0.553260
vt 0.539730 0.587630
vt 0.486550 0.631790
vt 0.428140 0.658140
vt 0.483433 0.542001
vt 0.402470 0.583300
vt 0.360940 0.645150
vt 0.368870 0.668940
vt 0.352680 0.610480
vt 0.312840 0.666850
vt 0.320500 0.691650
vt 0.314070 0.632880
vt 0.336460 0.593480
vt 0.396510 0.556660
vt 0.498423 0.435306
vt 0.501052 0.468076
vt 0.493178 0.497963
vt 0.433950 0.537220
vt 0.422190 0.512840
vt 0.499276 0.401120
vt 0.504000 0.368196
vt 0.484780 0.322910
vt 0.498680 0.280170
vt 0.543550 0.303340
vt 0.500730 0.272840
vt 0.442170 0.252450
vt 0.431700 0.303600
vt 0.421990 0.347620
vt 0.416100 0.378620
vt 0.408030 0.414850
vt 0.409720 0.476970
vt 0.371620 0.412240
vt 0.371770 0.371490
vt 0.352870 0.327400
vt 0.364950 0.284730
vt 0.375020 0.237030
vt 0.257380 0.704150
vt 0.273980 0.728880
vt 0.220880 0.674750
vt 0.256720 0.608870
vt 0.196990 0.631200
vt 0.318250 0.551960
vt 0.372090 0.451180
vt 0.371730 0.488040
vt 0.389120 0.530120
vt 0.301140 0.504880
vt 0.309540 0.450340
vt 0.306770 0.404620
vt 0.243400 0.406790
vt 0.242120 0.458540
vt 0.250590 0.510980
vt 0.232770 0.558910
vt 0.219130 0.589650
vt 0.792220 0.155080
vt 0.874460 0.107420
vt 0.809840 0.084150
vt 0.767960 0.107340
vt 0.209240 0.735600
vt 0.231280 0.765200
vt 0.186890 0.696430
vt 0.168540 0.667010
vt 0.115340 0.682150
vt 0.136260 0.720570
vt 0.154740 0.758440
vt 0.169690 0.785680
vt 0.820710 0.051730
vt 0.763540 0.089930
vt 0.702890 0.131740
vt 0.710670 0.140920
vt 0.671080 0.059580
vt 0.688160 0.096340
vt 0.755990 0.064420
vt 0.747390 0.037420
vt 0.781210 0.708980
vt 0.700590 0.683020
vt 0.690030 0.725730
vt 0.776550 0.743020
vt 0.806420 0.020000
vt 0.844030 0.745040
vt 0.852140 0.707040
vt 0.860620 0.748330
vt 0.876670 0.698390
vt 0.311390 0.360320
vt 0.228200 0.379100
vt 0.838140 0.679160
vt 0.885520 0.670090
vt 0.806820 0.630480
vt 0.790590 0.659480
vt 0.785670 0.681180
vt 0.845250 0.205040
vt 0.923170 0.178290
vt 0.895800 0.136280
vt 0.824270 0.173560
vt 0.848700 0.062010
vt 0.821670 0.015290
vt 0.853340 0.236790
vt 0.941290 0.224010
vt 0.930650 0.283970
vt 0.859120 0.282210
vt 0.303020 0.303140
vt 0.208360 0.341870
vt 0.286650 0.268100
vt 0.295400 0.209240
vt 0.377260 0.227520
vt 0.297540 0.199740
vt 0.446070 0.244800
vt 0.472470 0.192200
vt 0.532580 0.223780
vt 0.583160 0.261100
vt 0.631090 0.316340
vt 0.656820 0.374630
vt 0.668560 0.427530
vt 0.658480 0.481430
vt 0.640830 0.530590
vt 0.610660 0.586390
vt 0.187970 0.306110
vt 0.865340 0.459050
vt 0.843060 0.461560
vt 0.839990 0.506890
vt 0.865220 0.510480
vt 0.220340 0.215790
vt 0.248490 0.177790
vt 0.252790 0.171100
vt 0.388830 0.182450
vt 0.307080 0.139550
vt 0.412730 0.188600
vt 0.417230 0.168210
vt 0.644410 0.879560
vt 0.645680 0.960460
vt 0.701010 0.977290
vt 0.710320 0.864660
vt 0.764680 0.980350
vt 0.768930 0.868320
vt 0.820580 0.971090
vt 0.820880 0.874850
vt 0.885010 0.954780
vt 0.895580 0.878740
vt 0.931410 0.920430
vt 0.942050 0.872250
vt 0.769170 0.756860
vt 0.698340 0.754270
vt 0.829230 0.770060
vt 0.567650 0.633970
vt 0.512300 0.677990
vt 0.448980 0.717160
vt 0.628050 0.773740
vt 0.371200 0.675870
vt 0.324920 0.697570
vt 0.278710 0.735030
vt 0.235400 0.771750
vt 0.171740 0.793390
vt 0.195340 0.141380
vt 0.179620 0.188700
vt 0.098430 0.192610
vt 0.176220 0.241830
vt 0.115200 0.156000
vt 0.058190 0.827290
vt 0.112380 0.811110
vt 0.096170 0.778820
vt 0.047820 0.797830
vt 0.080090 0.737940
vt 0.031010 0.759270
vt 0.068580 0.708970
vt 0.022040 0.731540
vt 0.860320 0.326730
vt 0.132820 0.120760
vt 0.935970 0.343650
vt 0.879830 0.343080
vt 0.842380 0.356280
vt 0.824580 0.335030
vt 0.786410 0.343250
vt 0.798950 0.359150
vt 0.717780 0.188450
vt 0.803220 0.179630
vt 0.745150 0.222660
vt 0.821320 0.210880
vt 0.761940 0.251680
vt 0.828500 0.239060
vt 0.775510 0.286690
vt 0.835180 0.280110
vt 0.799770 0.387510
vt 0.842190 0.391470
vt 0.880410 0.396800
vt 0.941990 0.402180
vt 0.062080 0.137200
vt 0.047420 0.179670
vt 0.073990 0.103910
vt 0.115430 0.818600
vt 0.137220 0.250280
vt 0.905880 0.630310
vt 0.829920 0.597240
vt 0.847630 0.558260
vt 0.928220 0.593410
vt 0.081760 0.238190
vt 0.035470 0.208130
vt 0.861720 0.424660
vt 0.935970 0.460880
vt 0.838510 0.408930
vt 0.790776 0.401010
vt 0.953310 0.517860
vt 0.825550 0.550840
vt 0.811430 0.574520
vt 0.727360 0.581360
vt 0.759050 0.530550
vt 0.772690 0.492800
vt 0.784080 0.448660
vt 0.690610 0.147590
vt 0.701030 0.153590
vt 0.697420 0.194650
vt 0.719620 0.236340
vt 0.736350 0.269970
vt 0.747640 0.293690
vt 0.752170 0.326840
vt 0.672750 0.132740
vt 0.670120 0.141780
vt 0.658060 0.110210
vt 0.636680 0.076760
vt 0.668790 0.667640
vt 0.648530 0.708500
vt 0.713060 0.644730
vt 0.718440 0.635960
vt 0.712420 0.622240
vt 0.704190 0.629110
vt 0.682370 0.625580
vt 0.682450 0.639910
vt 0.273570 0.086980
vt 0.312580 0.108950
vt 0.199600 0.134160
vt 0.230230 0.062680
vt 0.524770 0.962540
vt 0.520750 0.882690
vt 0.502380 0.883570
vt 0.494040 0.961400
vt 0.635910 0.976750
vt 0.634040 0.950670
vt 0.615920 0.966760
vt 0.548620 0.907100
vt 0.548510 0.839880
vt 0.583410 0.815680
vt 0.506200 0.802880
vt 0.481430 0.804120
vt 0.613670 0.785790
vt 0.609290 0.769770
vt 0.430380 0.708940
vt 0.388510 0.726800
vt 0.355310 0.744280
vt 0.571080 0.791810
vt 0.537310 0.800430
vt 0.333810 0.769610
vt 0.315490 0.792920
vt 0.334440 0.796010
vt 0.134930 0.112610
vt 0.160280 0.036760
vt 0.072240 0.094500
vt 0.101560 0.025200
vt 0.211820 0.868560
vt 0.275530 0.834610
vt 0.139150 0.885880
vt 0.060540 0.835370
vt 0.085390 0.904210
vt 0.413460 0.807950
vt 0.417000 0.887480
vt 0.346660 0.821170
vt 0.344490 0.892930
vt 0.295080 0.867040
vt 0.295080 0.921310
vt 0.335330 0.959800
vt 0.402890 0.973080
vt 0.451090 0.970060
vt 0.757610 0.398907
vt 0.754690 0.443020
vt 0.742930 0.485990
vt 0.729570 0.521610
vt 0.707830 0.578360
vt 0.703060 0.603900
vt 0.648880 0.115590
vt 0.626870 0.083540
vt 0.636180 0.699620
vt 0.656200 0.660540
vt 0.925250 0.823120
vt 0.887110 0.789920
vt 0.792920 0.401386
vt 0.786410 0.343250
vn 0.6275 0.5882 0.5101
vn 0.6919 0.4286 0.5809
vn 0.2421 0.4817 0.8422
vn 0.2278 0.5666 0.7918
vn 0.8652 0.4611 0.1969
vn 0.8961 0.3591 0.2610
vn 0.9185 0.3953 -0.0112
vn 0.9745 0.2158 0.0614
vn -0.3656 0.3775 0.8508
vn -0.4421 0.5262 0.7264
vn 0.1515 0.8774 0.4552
vn -0.2752 0.8058 0.5243
vn 0.5322 0.7975 0.2844
vn 0.6827 0.7200 0.1241
vn 0.8504 0.5255 0.0253
vn 0.9485 0.2987 -0.1051
vn 0.9680 0.2351 -0.0875
vn 0.9086 0.3452 -0.2350
vn 0.9462 0.2437 -0.2128
vn 0.8760 0.3655 -0.3147
vn 0.9153 0.2024 -0.3482
vn 0.7728 0.6235 -0.1184
vn 0.2345 0.9718 -0.0237
vn 0.0138 0.9996 0.0262
vn 0.4842 0.8734 -0.0518
vn -0.2729 0.9545 0.1203
vn -0.7887 0.2521 0.5606
vn -0.7847 0.4311 0.4454
vn -0.6340 0.6406 0.4332
vn -0.8885 0.2082 0.4089
vn -0.9012 0.2524 0.3523
vn -0.6535 0.6823 0.3277
vn -0.7804 0.4084 0.4735
vn -0.3699 0.5087 0.7774
vn 0.2117 0.4962 0.8420
vn 0.6611 0.5136 0.5469
vn 0.8718 0.4390 0.2175
vn 0.9451 0.3267 -0.0105
vn 0.9456 0.3069 -0.1076
vn 0.9262 0.2893 -0.2417
vn 0.8890 0.2738 -0.3671
vn 0.7252 0.6788 -0.1155
vn 0.9013 0.3968 -0.1738
vn 0.8727 0.3559 -0.3343
vn 0.9156 0.1076 -0.3874
vn 0.9258 0.2129 -0.3125
vn 0.8785 0.3016 -0.3705
vn 0.9246 0.0521 -0.3774
vn 0.9473 0.1194 -0.2973
vn 0.9094 0.3303 -0.2529
vn 0.8208 0.5696 0.0428
vn 0.1777 0.9840 0.0097
vn 0.0394 0.9978 0.0539
vn 0.4205 0.9067 -0.0325
vn 0.6698 0.7419 0.0317
vn 0.5699 0.8104 0.1362
vn -0.1834 0.9710 0.1536
vn -0.6281 0.7047 0.3302
vn -0.9210 0.2171 0.3233
vn -0.9089 0.3384 0.2438
vn -0.9024 0.2455 0.3541
vn -0.9193 0.3218 0.2265
vn -0.9461 0.1386 0.2926
vn -0.9510 0.2572 0.1719
vn -0.6888 0.6229 0.3709
vn -0.3837 0.8418 0.3795
vn 0.0274 0.9009 0.4331
vn 0.2880 0.8939 0.3436
vn -0.0707 0.8126 0.5786
vn -0.4740 0.7209 0.5055
vn -0.8133 0.4053 0.4173
vn -0.9765 -0.0985 0.1918
vn -0.9821 0.0921 0.1646
vn 0.8485 0.3470 -0.3995
vn 0.9187 -0.0603 -0.3902
vn 0.9029 -0.0487 -0.4270
vn 0.9071 -0.0425 -0.4187
vn 0.9836 0.0433 -0.1750
vn 0.9159 0.3924 0.0848
vn 0.1949 0.7799 0.5948
vn 0.6851 0.6975 0.2100
vn 0.4218 0.7411 0.5224
vn 0.6091 0.6348 0.4755
vn 0.1128 0.7284 0.6758
vn -0.2658 0.6790 0.6843
vn -0.2957 0.4123 0.8617
vn 0.2122 0.6160 0.7586
vn 0.7116 0.4764 0.5165
vn 0.9728 0.2067 0.1046
vn 0.9904 0.0935 -0.1022
vn 0.9967 -0.0356 0.0731
vn 0.7731 0.0260 0.6338
vn 0.7373 0.1619 0.6559
vn 0.8342 0.3951 -0.3848
vn 0.8665 0.0322 -0.4982
vn 0.8263 0.0250 -0.5626
vn 0.7996 -0.0412 -0.5991
vn 0.6588 0.0744 -0.7487
vn 0.6272 0.0256 -0.7784
vn 0.6657 0.1345 -0.7340
vn 0.6519 0.5275 -0.5447
vn 0.4210 0.1345 0.8970
vn 0.4227 0.3666 0.8288
vn 0.7624 0.3242 0.5601
vn 0.5155 0.2989 0.8031
vn 0.2974 0.1724 0.9390
vn 0.3301 0.0852 0.9401
vn 0.5503 0.0763 0.8315
vn 0.5556 0.1112 0.8240
vn 0.0017 0.0437 0.9990
vn -0.0270 0.1679 0.9854
vn 0.2387 0.2843 0.9285
vn 0.1747 0.4316 0.8850
vn -0.5655 0.5859 0.5804
vn -0.6692 0.2163 0.7109
vn -0.1572 0.1160 0.9807
vn -0.2131 0.0137 0.9769
vn -0.8193 -0.1317 0.5581
vn 0.2076 0.1262 0.9700
vn 0.9187 -0.0954 -0.3833
vn 0.9923 -0.0470 -0.1148
vn 0.7818 -0.1451 -0.6064
vn 0.6062 -0.1350 -0.7838
vn -0.9329 0.1585 0.3233
vn -0.7906 0.1842 0.5840
vn -0.9592 -0.1521 0.2382
vn -0.9657 0.0690 0.2503
vn -0.9487 0.1833 0.2577
vn -0.9736 0.1592 0.1637
vn -0.9599 0.2492 0.1283
vn -0.7112 -0.7019 0.0388
vn -0.6912 -0.6821 0.2386
vn -0.6224 -0.6743 0.3974
vn -0.5479 -0.5804 0.6025
vn -0.2495 -0.4616 0.8512
vn 0.2376 -0.4611 0.8550
vn 0.5890 -0.4853 0.6461
vn 0.7508 -0.5355 0.3867
vn 0.7444 -0.6447 0.1738
vn -0.9240 0.0427 0.3801
vn -0.9339 -0.1773 -0.3105
vn -0.9840 -0.1670 0.0617
vn -0.9756 -0.2136 0.0500
vn -0.9218 -0.2309 -0.3115
vn -0.9374 -0.2495 0.2427
vn -0.9370 0.2139 0.2761
vn -0.9080 0.2816 0.3103
vn -0.6847 -0.4888 0.5406
vn -0.8944 -0.4368 -0.0964
vn -0.9699 -0.1966 -0.1436
vn -0.6411 -0.6888 -0.3385
vn -0.0281 -0.9934 -0.1109
vn 0.0171 -0.9998 0.0131
vn 0.0412 -0.9954 0.0865
vn 0.0699 -0.9816 0.1776
vn 0.0933 -0.9611 0.2599
vn 0.7062 -0.6741 -0.2163
vn 0.7559 -0.6546 0.0098
vn 0.4997 -0.7175 -0.4853
vn 0.8744 0.2856 -0.3923
vn 0.8900 0.2686 -0.3684
vn 0.8607 0.3547 -0.3651
vn 0.8681 0.2729 -0.4146
vn 0.6447 0.4873 -0.5891
vn -0.9777 -0.1142 0.1763
vn -0.8610 0.4297 0.2720
vn -0.9753 0.0175 -0.2202
vn -0.9825 0.0717 -0.1719
vn -0.9801 -0.1222 0.1566
vn -0.6385 0.4356 -0.6345
vn -0.6504 0.1232 -0.7495
vn 0.1031 0.1672 -0.9805
vn 0.1050 0.5832 -0.8055
vn -0.6620 0.1763 -0.7285
vn 0.1102 0.1636 -0.9803
vn -0.6164 0.1251 -0.7774
vn 0.0821 0.1332 -0.9877
vn 0.4450 -0.0498 -0.8942
vn -0.9296 0.3657 -0.0456
vn 0.0646 -0.0148 -0.9978
vn 0.0734 -0.1281 -0.9890
vn 0.4153 -0.0288 -0.9092
vn 0.0883 0.6295 -0.7720
vn 0.2365 0.2641 -0.9350
vn 0.9717 0.0152 -0.2358
vn 0.9952 -0.0909 -0.0364
vn 0.9276 -0.1434 -0.3450
vn 0.8999 0.1406 -0.4128
vn 0.7962 -0.1775 -0.5784
vn 0.7977 0.1205 -0.5909
vn 0.5853 -0.2032 -0.7850
vn 0.5646 0.0838 -0.8211
vn -0.5218 -0.1575 -0.8384
vn -0.4444 0.5678 -0.6929
vn -0.4838 -0.0480 -0.8739
vn 0.1156 0.4896 -0.8642
vn -0.9957 -0.0726 0.0569
vn -0.8135 -0.0937 0.5739
vn -0.9131 -0.1795 0.3662
vn -0.9622 -0.0006 -0.2722
vn -0.8078 -0.1316 -0.5745
vn -0.7904 -0.1308 -0.5984
vn -0.6511 0.2353 -0.7216
vn -0.9224 -0.2066 0.3262
vn -0.8157 -0.1143 0.5671
vn -0.9173 -0.0131 0.3979
vn -0.9832 0.0595 0.1727
vn -0.9985 0.0282 -0.0475
vn -0.9167 0.0251 -0.3988
vn 0.7836 0.6181 0.0630
vn 0.7023 0.6685 0.2447
vn 0.9340 0.1265 -0.3342
vn 0.8142 0.2740 -0.5119
vn 0.7141 0.2867 -0.6386
vn 0.5352 0.2205 -0.8154
vn 0.1075 0.2518 -0.9618
vn 0.8169 0.5751 -0.0444
vn 0.7347 0.5981 0.3201
vn 0.4348 0.6496 0.6237
vn 0.1799 0.7138 0.6768
vn -0.0645 0.6514 0.7560
vn 0.0559 0.3678 0.9282
vn -0.2027 0.4591 0.8650
vn -0.4326 0.6694 0.6040
vn -0.6961 0.4856 0.5288
vn -0.5287 0.7290 0.4347
vn -0.7520 0.6079 0.2548
vn -0.6307 -0.7185 0.2933
vn -0.3492 -0.6949 0.6286
vn -0.8940 0.3606 0.2660
vn -0.6989 -0.7048 0.1219
vn 0.1994 -0.8132 0.5467
vn 0.1573 -0.8582 0.4886
vn -0.5086 -0.7835 -0.3570
vn -0.1246 -0.9878 -0.0930
vn 0.0613 -0.9873 -0.1464
vn 0.1311 -0.9347 -0.3303
vn 0.7001 -0.6964 0.1574
vn 0.8723 -0.4782 0.1019
vn 0.2192 -0.8140 -0.5380
vn 0.7449 -0.2434 -0.6212
vn 0.6630 -0.5246 -0.5341
vn 0.7515 -0.6147 -0.2396
vn 0.9585 -0.0984 -0.2677
vn -0.9432 0.3222 -0.0811
vn -0.7514 -0.6065 -0.2599
vn -0.5946 0.3958 -0.6998
vn -0.5261 -0.4479 -0.7229
vn 0.6171 -0.7134 -0.3321
vn 0.4873 -0.6164 -0.6185
vn 0.0427 -0.4416 -0.8962
vn -0.0064 -0.9983 -0.0582
vn -0.0610 -0.9703 -0.2341
vn -0.8972 0.0548 -0.4381
vn -0.5094 0.2137 -0.8336
vn -0.9927 0.0960 -0.0735
vn -0.9804 0.1459 0.1324
vn -0.9243 -0.0003 0.3818
vn -0.8341 0.3246 0.4461
vn 0.2348 0.9477 0.2162
vn 0.0627 0.9592 0.2757
vn -0.0941 0.9272 0.3625
vn -0.6275 0.5882 0.5101
vn -0.2278 0.5666 0.7918
vn -0.2421 0.4817 0.8422
vn -0.6919 0.4287 0.5809
vn -0.8652 0.4611 0.1969
vn -0.8961 0.3591 0.2610
vn -0.9745 0.2158 0.0614
vn -0.9185 0.3953 -0.0112
vn 0.3656 0.3775 0.8508
vn 0.4421 0.5262 0.7264
vn 0.2752 0.8058 0.5243
vn -0.1515 0.8774 0.4552
vn -0.5322 0.7975 0.2844
vn -0.6827 0.7200 0.1241
vn -0.8504 0.5255 0.0253
vn -0.9681 0.2350 -0.0872
vn -0.9487 0.2984 -0.1049
vn -0.9464 0.2433 -0.2123
vn -0.9088 0.3450 -0.2346
vn -0.9155 0.2021 -0.3478
vn -0.8762 0.3652 -0.3144
vn -0.7728 0.6235 -0.1183
vn -0.0138 0.9996 0.0262
vn -0.2345 0.9718 -0.0237
vn -0.4842 0.8734 -0.0518
vn 0.2729 0.9545 0.1203
vn 0.7847 0.4311 0.4454
vn 0.7887 0.2521 0.5606
vn 0.6340 0.6406 0.4332
vn 0.9013 0.2525 0.3519
vn 0.8887 0.2082 0.4085
vn 0.6535 0.6823 0.3277
vn 0.7804 0.4084 0.4735
vn 0.3699 0.5087 0.7774
vn -0.2117 0.4962 0.8420
vn -0.6611 0.5136 0.5469
vn -0.8718 0.4390 0.2175
vn -0.9451 0.3268 -0.0104
vn -0.9458 0.3064 -0.1073
vn -0.9264 0.2890 -0.2413
vn -0.8892 0.2735 -0.3668
vn -0.7254 0.6785 -0.1154
vn -0.9015 0.3965 -0.1735
vn -0.9158 0.1073 -0.3870
vn -0.8729 0.3556 -0.3340
vn -0.9260 0.2126 -0.3121
vn -0.9248 0.0518 -0.3770
vn -0.8788 0.3013 -0.3701
vn -0.9475 0.1191 -0.2968
vn -0.9096 0.3300 -0.2526
vn -0.8209 0.5694 0.0430
vn -0.0393 0.9978 0.0537
vn -0.1776 0.9840 0.0096
vn -0.4205 0.9067 -0.0325
vn -0.6699 0.7418 0.0319
vn -0.5700 0.8103 0.1362
vn 0.1834 0.9710 0.1534
vn 0.6282 0.7046 0.3298
vn 0.9212 0.2173 0.3226
vn 0.9090 0.3385 0.2433
vn 0.9025 0.2455 0.3539
vn 0.9193 0.3221 0.2260
vn 0.9510 0.2574 0.1714
vn 0.9462 0.1389 0.2921
vn 0.6888 0.6232 0.3704
vn 0.3838 0.8420 0.3791
vn -0.0274 0.9011 0.4328
vn -0.2880 0.8939 0.3434
vn 0.0708 0.8127 0.5783
vn 0.4741 0.7212 0.5051
vn 0.8135 0.4056 0.4168
vn 0.9766 -0.0982 0.1913
vn 0.9821 0.0923 0.1641
vn -0.9189 -0.0606 -0.3898
vn -0.8488 0.3467 -0.3992
vn -0.9031 -0.0491 -0.4266
vn -0.9837 0.0430 -0.1745
vn -0.9072 -0.0428 -0.4184
vn -0.9159 0.3922 0.0852
vn -0.1948 0.7800 0.5946
vn -0.4217 0.7412 0.5224
vn -0.6851 0.6974 0.2101
vn -0.6089 0.6348 0.4756
vn -0.1126 0.7287 0.6756
vn 0.2661 0.6794 0.6839
vn 0.2958 0.4127 0.8615
vn -0.2122 0.6162 0.7585
vn -0.7117 0.4762 0.5165
vn -0.9728 0.2064 0.1048
vn -0.9904 0.0932 -0.1021
vn -0.9967 -0.0358 0.0732
vn -0.7372 0.1618 0.6560
vn -0.7730 0.0258 0.6338
vn -0.8667 0.0319 -0.4978
vn -0.8344 0.3948 -0.3845
vn -0.8266 0.0247 -0.5622
vn -0.7999 -0.0414 -0.5988
vn -0.6276 0.0255 -0.7782
vn -0.6591 0.0741 -0.7484
vn -0.6661 0.1341 -0.7337
vn -0.6523 0.5272 -0.5445
vn -0.4227 0.3664 0.8289
vn -0.4209 0.1343 0.8971
vn -0.5155 0.2988 0.8031
vn -0.7623 0.3241 0.5602
vn -0.2974 0.1723 0.9391
vn -0.5556 0.1111 0.8240
vn -0.5502 0.0761 0.8316
vn -0.3300 0.0850 0.9402
vn -0.0016 0.0436 0.9990
vn 0.0271 0.1678 0.9855
vn -0.2386 0.2842 0.9286
vn -0.1747 0.4315 0.8851
vn 0.5657 0.5863 0.5799
vn 0.6693 0.2167 0.7107
vn 0.1573 0.1159 0.9807
vn 0.8193 -0.1317 0.5580
vn 0.2132 0.0136 0.9769
vn -0.2075 0.1261 0.9701
vn -0.9187 -0.0955 -0.3833
vn -0.9923 -0.0471 -0.1148
vn -0.7819 -0.1451 -0.6063
vn -0.6063 -0.1349 -0.7837
vn 0.9331 0.1589 0.3228
vn 0.7907 0.1845 0.5838
vn 0.9594 -0.1518 0.2378
vn 0.9658 0.0693 0.2498
vn 0.9736 0.1595 0.1632
vn 0.9487 0.1836 0.2572
vn 0.9599 0.2495 0.1278
vn 0.7114 -0.7018 0.0387
vn 0.6916 -0.6819 0.2383
vn 0.6224 -0.6743 0.3973
vn 0.5479 -0.5804 0.6025
vn 0.2495 -0.4616 0.8512
vn -0.2376 -0.4611 0.8550
vn -0.5890 -0.4853 0.6461
vn -0.7508 -0.5355 0.3867
vn -0.7444 -0.6446 0.1742
vn 0.9241 0.0430 0.3798
vn 0.9338 -0.1773 -0.3106
vn 0.9218 -0.2307 -0.3116
vn 0.9757 -0.2135 0.0499
vn 0.9840 -0.1669 0.0615
vn 0.9376 -0.2493 0.2424
vn 0.9371 0.2142 0.2756
vn 0.9081 0.2819 0.3098
vn 0.8944 -0.4367 -0.0967
vn 0.6851 -0.4885 0.5404
vn 0.9699 -0.1964 -0.1440
vn 0.6411 -0.6887 -0.3386
vn 0.0283 -0.9935 -0.1106
vn -0.0169 -0.9998 0.0135
vn -0.0410 -0.9954 0.0868
vn -0.0699 -0.9816 0.1777
vn -0.0933 -0.9611 0.2599
vn -0.7558 -0.6548 0.0105
vn -0.7062 -0.6743 -0.2158
vn -0.4997 -0.7177 -0.4849
vn -0.8746 0.2853 -0.3920
vn -0.8903 0.2683 -0.3680
vn -0.8610 0.3544 -0.3648
vn -0.8684 0.2725 -0.4142
vn -0.6450 0.4870 -0.5889
vn 0.8611 0.4299 0.2715
vn 0.9778 -0.1139 0.1759
vn 0.9752 0.0176 -0.2207
vn 0.9802 -0.1219 0.1562
vn 0.9824 0.0718 -0.1724
vn 0.6381 0.4356 -0.6349
vn -0.1055 0.5829 -0.8057
vn -0.1036 0.1669 -0.9805
vn 0.6500 0.1231 -0.7499
vn -0.1107 0.1633 -0.9803
vn 0.6616 0.1763 -0.7288
vn -0.0826 0.1331 -0.9876
vn 0.6160 0.1250 -0.7778
vn -0.4451 -0.0497 -0.8941
vn 0.9295 0.3659 -0.0461
vn -0.0645 -0.0147 -0.9978
vn -0.0735 -0.1280 -0.9891
vn -0.4154 -0.0287 -0.9092
vn -0.2367 0.2642 -0.9350
vn -0.0885 0.6296 -0.7719
vn -0.9717 0.0151 -0.2357
vn -0.9952 -0.0910 -0.0363
vn -0.8999 0.1405 -0.4127
vn -0.9276 -0.1435 -0.3449
vn -0.7978 0.1204 -0.5908
vn -0.7962 -0.1775 -0.5784
vn -0.5646 0.0838 -0.8211
vn -0.5853 -0.2032 -0.7849
vn 0.4443 0.5679 -0.6929
vn 0.5217 -0.1573 -0.8385
vn 0.4838 -0.0480 -0.8739
vn -0.1161 0.4894 -0.8643
vn 0.9958 -0.0725 0.0565
vn 0.8136 -0.0936 0.5738
vn 0.9131 -0.1793 0.3661
vn 0.9621 -0.0006 -0.2727
vn 0.8078 -0.1316 -0.5746
vn 0.7904 -0.1307 -0.5985
vn 0.6510 0.2354 -0.7217
vn 0.9225 -0.2065 0.3261
vn 0.8157 -0.1143 0.5670
vn 0.9174 -0.0130 0.3978
vn 0.9832 0.0596 0.1726
vn 0.9985 0.0283 -0.0476
vn 0.9167 0.0252 -0.3989
vn -0.7023 0.6684 0.2449
vn -0.7836 0.6180 0.0631
vn -0.9340 0.1264 -0.3340
vn -0.8143 0.2739 -0.5118
vn -0.7142 0.2867 -0.6385
vn -0.5353 0.2205 -0.8153
vn -0.1077 0.2519 -0.9618
vn -0.7347 0.5980 0.3202
vn -0.8169 0.5750 -0.0442
vn -0.4348 0.6495 0.6238
vn -0.1799 0.7137 0.6769
vn 0.0646 0.6513 0.7560
vn -0.0559 0.3677 0.9283
vn 0.2027 0.4590 0.8650
vn 0.6961 0.4856 0.5288
vn 0.4325 0.6694 0.6040
vn 0.7520 0.6080 0.2548
vn 0.5286 0.7291 0.4348
vn 0.6310 -0.7182 0.2932
vn 0.3497 -0.6947 0.6286
vn 0.8940 0.3609 0.2654
vn 0.6991 -0.7046 0.1217
vn -0.1569 -0.8581 0.4889
vn -0.1990 -0.8131 0.5470
vn 0.5086 -0.7835 -0.3571
vn 0.1248 -0.9878 -0.0928
vn -0.0611 -0.9874 -0.1461
vn -0.1311 -0.9349 -0.3300
vn -0.8722 -0.4783 0.1025
vn -0.6999 -0.6965 0.1580
vn -0.2193 -0.8142 -0.5376
vn -0.7451 -0.2437 -0.6208
vn -0.6631 -0.5249 -0.5336
vn -0.7515 -0.6149 -0.2391
vn -0.9586 -0.0987 -0.2672
vn 0.9431 0.3224 -0.0816
vn 0.7514 -0.6064 -0.2601
vn 0.5942 0.3957 -0.7002
vn 0.5258 -0.4480 -0.7230
vn -0.4875 -0.6167 -0.6181
vn -0.6171 -0.7136 -0.3316
vn -0.0431 -0.4419 -0.8960
vn 0.0066 -0.9983 -0.0579
vn 0.0611 -0.9704 -0.2338
vn 0.5092 0.2138 -0.8336
vn 0.8972 0.0549 -0.4382
vn 0.9926 0.0961 -0.0736
vn 0.9804 0.1461 0.1324
vn 0.9243 -0.0003 0.3817
vn 0.8341 0.3246 0.4460
vn -0.2349 0.9476 0.2163
vn -0.0628 0.9592 0.2758
vn 0.0940 0.9272 0.3626
usemtl safety_boots
s 1
f 2/1/1 3/2/2 4/3/3
f 4/3/3 1/4/4 2/1/1
f 5/5/5 6/6/6 3/2/2
f 3/2/2 2/1/1 5/5/5
f 5/5/5 7/7/7 8/8/8
f 8/8/8 6/6/6 5/5/5
f 9/9/9 10/10/10 1/4/4
f 1/4/4 4/3/3 9/9/9
f 4/3/3 11/11/11 12/12/12
f 12/12/12 9/9/9 4/3/3
f 3/2/2 13/13/13 11/11/11
f 11/11/11 4/3/3 3/2/2
f 13/13/13 3/2/2 6/6/6
f 6/6/6 14/14/14 13/13/13
f 6/6/6 8/8/8 15/15/15
f 15/15/15 14/14/14 6/6/6
f 7/7/7 16/16/16 17/17/17
f 17/17/17 8/8/8 7/7/7
f 16/16/16 18/18/18 19/19/19
f 19/19/19 17/17/17 16/16/16
f 18/18/18 20/20/20 21/21/21
f 21/21/21 19/19/19 18/18/18
f 8/8/8 17/17/17 22/22/22
f 22/22/22 15/15/15 8/8/8
f 13/13/13 23/23/23 24/24/24
f 24/24/24 11/11/11 13/13/13
f 23/23/23 13/13/13 14/14/14
f 14/14/14 25/25/25 23/23/23
f 25/25/25 14/14/14 15/15/15
f 15/15/15 22/22/22 25/25/25
f 12/12/12 11/11/11 24/24/24
f 24/24/24 26/26/26 12/12/12
f 10/10/10 9/9/9 27/27/27
f 27/27/27 28/28/28 10/10/10
f 29/29/29 27/27/27 9/9/9
f 9/9/9 12/12/12 29/29/29
f 28/28/28 27/27/27 30/30/30
f 30/30/30 31/31/31 28/28/28
f 27/27/27 29/29/29 32/32/32
f 32/32/32 30/30/30 27/27/27
f 26/26/26 32/32/32 29/29/29
f 29/29/29 12/12/12 26/26/26
f 33/33/33 34/34/34 10/10/10
f 10/10/10 28/28/28 33/33/33
f 34/34/34 35/35/35 1/4/4
f 1/4/4 10/10/10 34/34/34
f 36/36/36 2/1/1 1/4/4
f 1/4/4 35/35/35 36/36/36
f 37/37/37 5/5/5 2/1/1
f 2/1/1 36/36/36 37/37/37
f 37/37/37 38/38/38 7/7/7
f 7/7/7 5/5/5 37/37/37
f 38/38/38 39/39/39 16/16/16
f 16/16/16 7/7/7 38/38/38
f 39/39/39 40/40/40 18/18/18
f 18/18/18 16/16/16 39/39/39
f 40/40/40 41/41/41 20/20/20
f 20/20/20 18/18/18 40/40/40
f 42/42/42 22/22/22 17/17/17
f 17/17/17 19/19/19 42/42/42
f 19/19/19 21/21/21 43/43/43
f 43/43/43 42/42/42 19/19/19
f 20/20/20 44/44/44 45/45/45
f 45/45/45 21/21/21 20/20/20
f 21/21/21 45/45/45 46/46/46
f 46/46/46 43/43/43 21/21/21
f 44/44/44 47/47/47 48/48/48
f 48/48/48 45/45/45 44/44/44
f 45/45/45 48/48/48 49/49/49
f 49/49/49 46/46/46 45/45/45
f 46/46/46 49/49/49 50/50/50
f 43/43/43 46/46/46 50/50/50
f 50/50/50 52/51/51 43/43/43
f 23/23/23 53/52/52 54/53/53
f 54/53/53 24/24/24 23/23/23
f 53/52/52 23/23/23 25/25/25
f 25/25/25 55/54/54 53/52/52
f 55/54/54 25/25/25 22/22/22
f 22/22/22 42/42/42 55/54/54
f 43/43/43 52/51/51 56/55/55
f 56/55/55 42/42/42 43/43/43
f 56/55/55 57/56/56 55/54/54
f 55/54/54 42/42/42 56/55/55
f 26/26/26 24/24/24 54/53/53
f 54/53/53 58/57/57 26/26/26
f 58/57/57 59/58/58 32/32/32
f 32/32/32 26/26/26 58/57/57
f 30/30/30 32/32/32 59/58/58
f 59/58/58 60/59/59 30/30/30
f 60/59/59 61/60/60 31/31/31
f 31/31/31 30/30/30 60/59/59
f 62/61/61 33/33/33 28/28/28
f 28/28/28 31/31/31 62/61/61
f 31/31/31 61/60/60 63/62/62
f 63/62/62 62/61/61 31/31/31
f 61/60/60 60/59/59 64/63/63
f 64/63/63 65/64/64 61/60/60
f 60/59/59 59/58/58 66/65/65
f 66/65/65 64/63/63 60/59/59
f 59/58/58 58/57/57 67/66/66
f 67/66/66 66/65/65 59/58/58
f 58/57/57 54/53/53 68/67/67
f 68/67/67 67/66/66 58/57/57
f 54/53/53 53/52/52 69/68/68
f 69/68/68 68/67/67 54/53/53
f 69/68/68 53/52/52 55/54/54
f 55/54/54 57/56/56 69/68/68
f 70/69/69 71/70/70 67/66/66
f 67/66/66 68/67/67 70/69/69
f 71/70/70 72/71/71 66/65/65
f 66/65/65 67/66/66 71/70/70
f 72/71/71 73/72/72 64/63/63
f 64/63/63 66/65/65 72/71/71
f 65/64/64 64/63/63 73/72/72
f 73/72/72 74/73/73 65/64/64
f 47/47/47 75/74/74 76/75/75
f 76/75/75 48/48/48 47/47/47
f 49/49/49 48/48/48 76/75/75
f 76/75/75 77/76/76 49/49/49
f 77/76/76 78/77/77 79/78/78
f 49/49/49 79/78/78 80/79/79
f 80/79/79 50/50/50 49/49/49
f 81/80/80 70/69/69 68/67/67
f 69/68/68 57/56/56 83/81/81
f 83/81/81 84/82/82 69/68/68
f 50/50/50 80/79/79 83/81/81
f 83/81/81 52/51/51 50/50/50
f 80/79/79 82/83/83 84/82/82
f 84/82/82 83/81/81 80/79/79
f 83/81/81 57/56/56 56/55/55
f 56/55/55 52/51/51 83/81/81
f 85/84/84 86/85/85 70/69/69
f 70/69/69 81/80/80 85/84/84
f 69/68/68 84/82/82 81/80/80
f 84/82/82 82/83/83 85/84/84
f 85/84/84 81/80/80 84/82/82
f 89/86/86 86/85/85 85/84/84
f 85/84/84 109/87/87 89/86/86
f 82/83/83 88/88/88 109/87/87
f 109/87/87 85/84/84 82/83/83
f 88/88/88 82/83/83 80/79/79
f 80/79/79 90/89/89 88/88/88
f 90/89/89 80/79/79 79/78/78
f 79/78/78 91/90/90 90/89/89
f 92/91/91 93/92/92 217/93/93
f 217/93/93 90/94/89 92/91/91
f 75/74/74 94/95/94 95/96/95
f 95/96/95 76/75/75 75/74/74
f 77/76/76 76/75/75 95/96/95
f 95/96/95 96/97/96 77/76/76
f 97/98/97 78/77/77 77/76/76
f 91/90/90 79/78/78 78/77/77
f 97/98/97 96/97/96 98/99/98
f 98/99/98 99/100/99 97/98/97
f 100/101/100 98/99/98 96/97/96
f 96/97/96 95/96/95 100/101/100
f 101/102/101 100/101/100 95/96/95
f 95/96/95 94/95/94 101/102/101
f 217/93/93 93/92/92 102/103/102
f 102/103/102 114/104/103 217/93/93
f 93/92/92 103/105/104 104/106/105
f 104/106/105 102/103/102 93/92/92
f 107/107/106 108/108/107 256/109/108
f 256/109/108 257/110/109 107/107/106
f 255/111/110 108/112/107 107/113/106
f 107/113/106 254/114/111 255/111/110
f 256/109/108 108/108/107 87/115/112
f 87/115/112 114/104/103 256/109/108
f 87/116/112 108/112/107 255/111/110
f 255/111/110 113/117/113 87/116/112
f 113/117/113 89/118/86 109/119/87
f 109/119/87 87/116/112 113/117/113
f 68/67/67 69/68/68 81/80/80
f 71/70/70 70/69/69 86/85/85
f 86/85/85 51/120/114 71/70/70
f 86/85/85 89/86/86 110/121/115
f 110/121/115 51/120/114 86/85/85
f 216/122/116 111/123/117 112/124/118
f 112/124/118 110/125/115 216/122/116
f 106/126/119 111/123/117 216/122/116
f 216/122/116 113/117/113 106/126/119
f 115/127/120 116/128/121 91/129/90
f 91/129/90 78/130/77 115/127/120
f 114/104/103 87/115/112 109/131/87
f 109/131/87 88/132/88 114/104/103
f 90/94/89 91/129/90 116/128/121
f 116/128/121 92/91/91 90/94/89
f 78/130/77 97/133/97 117/134/122
f 117/134/122 115/127/120 78/130/77
f 99/135/99 118/136/123 117/134/122
f 117/134/122 97/133/97 99/135/99
f 72/71/71 71/70/70 51/120/114
f 51/120/114 119/137/124 72/71/71
f 120/138/125 119/137/124 51/120/114
f 51/120/114 110/121/115 120/138/125
f 119/137/124 121/139/126 73/72/72
f 73/72/72 72/71/71 119/137/124
f 74/73/73 73/72/72 121/139/126
f 121/139/126 122/140/127 74/73/73
f 122/140/127 123/141/128 124/142/129
f 124/142/129 74/73/73 122/140/127
f 124/142/129 125/143/130 65/64/64
f 65/64/64 74/73/73 124/142/129
f 63/62/62 61/60/60 65/64/64
f 65/64/64 125/143/130 63/62/62
f 126/144/131 127/145/132 63/62/62
f 63/62/62 125/143/130 126/144/131
f 127/145/132 128/146/133 62/61/61
f 62/61/61 63/62/62 127/145/132
f 129/147/134 33/33/33 62/61/61
f 62/61/61 128/146/133 129/147/134
f 130/148/135 34/34/34 33/33/33
f 33/33/33 129/147/134 130/148/135
f 130/148/135 131/149/136 35/35/35
f 35/35/35 34/34/34 130/148/135
f 132/150/137 36/36/36 35/35/35
f 35/35/35 131/149/136 132/150/137
f 132/150/137 133/151/138 37/37/37
f 37/37/37 36/36/36 132/150/137
f 133/151/138 134/152/139 38/38/38
f 38/38/38 37/37/37 133/151/138
f 121/139/126 119/137/124 120/138/125
f 120/138/125 135/153/140 121/139/126
f 196/154/141 197/155/142 198/156/143
f 198/156/143 188/157/144 196/154/141
f 136/158/145 137/159/146 122/140/127
f 122/140/127 121/139/126 136/158/145
f 123/141/128 122/140/127 137/159/146
f 137/159/146 138/160/147 123/141/128
f 123/141/128 139/161/148 140/162/149
f 140/162/149 124/142/129 123/141/128
f 141/163/150 125/143/130 124/142/129
f 124/142/129 140/162/149 141/163/150
f 141/163/150 142/164/151 126/144/131
f 126/144/131 125/143/130 141/163/150
f 143/165/152 144/166/153 126/167/131
f 126/167/131 142/168/151 143/165/152
f 144/166/153 145/169/154 127/170/132
f 127/170/132 126/167/131 144/166/153
f 145/169/154 146/171/155 128/172/133
f 128/172/133 127/170/132 145/169/154
f 146/171/155 147/173/156 129/174/134
f 129/174/134 128/172/133 146/171/155
f 147/173/156 131/175/136 130/176/135
f 130/176/135 129/174/134 147/173/156
f 144/166/153 148/177/157 149/178/158
f 149/178/158 145/169/154 144/166/153
f 134/179/139 146/171/155 145/169/154
f 145/169/154 149/178/158 134/179/139
f 39/39/39 38/38/38 134/152/139
f 134/152/139 149/180/158 39/39/39
f 40/40/40 39/39/39 149/180/158
f 149/180/158 148/181/157 40/40/40
f 41/41/41 40/40/40 148/181/157
f 148/181/157 150/182/159 41/41/41
f 150/183/159 148/177/157 144/166/153
f 144/166/153 143/165/152 150/183/159
f 41/41/41 151/184/160 44/44/44
f 44/44/44 20/20/20 41/41/41
f 152/185/161 47/47/47 44/44/44
f 44/44/44 151/184/160 152/185/161
f 152/185/161 153/186/162 75/74/74
f 75/74/74 47/47/47 152/185/161
f 153/186/162 154/187/163 94/95/94
f 94/95/94 75/74/74 153/186/162
f 155/188/164 101/102/101 94/95/94
f 94/95/94 154/187/163 155/188/164
f 137/159/146 136/158/145 165/189/165
f 165/189/165 182/190/166 137/159/146
f 183/191/167 184/192/168 165/189/165
f 165/189/165 187/193/169 183/191/167
f 159/194/170 160/195/171 157/196/172
f 157/196/172 156/197/173 159/194/170
f 157/196/172 160/195/171 161/198/174
f 161/198/174 158/199/175 157/196/172
f 158/199/175 161/198/174 162/200/176
f 162/200/176 163/201/177 158/199/175
f 158/199/175 163/201/177 99/100/99
f 99/100/99 98/99/98 158/199/175
f 166/202/178 118/136/123 99/135/99
f 185/203/179 182/190/166 165/189/165
f 165/189/165 184/192/168 185/203/179
f 163/204/177 164/205/180 166/202/178
f 166/202/178 99/135/99 163/204/177
f 167/206/181 168/207/182 166/202/178
f 166/202/178 164/205/180 167/206/181
f 168/207/182 167/206/181 169/208/183
f 169/208/183 170/209/184 168/207/182
f 79/78/78 49/49/49 77/76/76
f 77/76/76 96/97/96 97/98/97
f 93/92/92 92/91/91 171/210/185
f 171/210/185 103/105/104 93/92/92
f 172/211/186 173/212/187 174/213/188
f 174/213/188 171/210/185 172/211/186
f 172/211/186 171/210/185 92/91/91
f 172/211/186 92/91/91 116/128/121
f 173/212/187 172/211/186 116/128/121
f 116/128/121 115/127/120 173/212/187
f 173/212/187 175/214/189 176/215/190
f 176/215/190 174/213/188 173/212/187
f 175/214/189 177/216/191 178/217/192
f 178/217/192 176/215/190 175/214/189
f 168/207/182 170/209/184 178/217/192
f 178/217/192 177/216/191 168/207/182
f 177/216/191 118/136/123 166/202/178
f 166/202/178 168/207/182 177/216/191
f 175/214/189 173/212/187 115/127/120
f 115/127/120 117/134/122 175/214/189
f 117/134/122 118/136/123 177/216/191
f 177/216/191 175/214/189 117/134/122
f 167/206/181 179/218/193 180/219/194
f 180/219/194 169/208/183 167/206/181
f 181/220/195 179/218/193 167/206/181
f 167/206/181 164/205/180 181/220/195
f 181/220/195 164/205/180 163/204/177
f 163/204/177 162/221/176 181/220/195
f 156/197/173 157/196/172 100/101/100
f 100/101/100 101/102/101 156/197/173
f 157/196/172 158/199/175 98/99/98
f 98/99/98 100/101/100 157/196/172
f 160/222/171 184/192/168 183/191/167
f 183/191/167 161/223/174 160/222/171
f 159/224/170 185/203/179 184/192/168
f 184/192/168 160/222/171 159/224/170
f 155/188/164 186/225/196 156/197/173
f 156/197/173 101/102/101 155/188/164
f 135/153/140 191/226/197 187/193/169
f 121/139/126 135/153/140 187/193/169
f 110/125/115 112/124/118 189/227/198
f 189/227/198 120/228/125 110/125/115
f 190/229/199 135/230/140 120/228/125
f 120/228/125 189/227/198 190/229/199
f 191/226/197 192/231/200 183/191/167
f 183/191/167 187/193/169 191/226/197
f 162/232/176 161/223/174 183/191/167
f 183/191/167 192/231/200 162/232/176
f 193/233/201 181/220/195 162/221/176
f 162/221/176 192/234/200 193/233/201
f 193/233/201 194/235/202 179/218/193
f 179/218/193 181/220/195 193/233/201
f 195/236/203 180/219/194 179/218/193
f 179/218/193 194/235/202 195/236/203
f 193/233/201 192/234/200 196/154/141
f 192/234/200 191/237/197 197/155/142
f 197/155/142 196/154/141 192/234/200
f 135/230/140 190/229/199 197/155/142
f 197/155/142 191/237/197 135/230/140
f 193/233/201 196/154/141 188/157/144
f 188/157/144 194/235/202 193/233/201
f 187/193/169 165/189/165 136/158/145
f 187/193/169 136/158/145 121/139/126
f 198/156/143 197/155/142 190/229/199
f 190/229/199 199/238/204 198/156/143
f 190/229/199 189/227/198 200/239/205
f 200/239/205 199/238/204 190/229/199
f 189/227/198 202/240/206 200/239/205
f 201/241/207 199/238/204 200/239/205
f 200/239/205 202/240/206 201/241/207
f 203/242/208 198/156/143 199/238/204
f 199/238/204 201/241/207 203/242/208
f 203/242/208 204/243/209 188/157/144
f 188/157/144 198/156/143 203/242/208
f 194/235/202 188/157/144 204/243/209
f 204/243/209 195/236/203 194/235/202
f 103/105/104 205/244/210 206/245/211
f 206/245/211 104/106/105 103/105/104
f 205/244/210 103/105/104 171/210/185
f 171/210/185 207/246/212 205/244/210
f 206/245/211 205/244/210 207/246/212
f 171/210/185 174/213/188 209/247/213
f 209/247/213 207/246/212 171/210/185
f 209/247/213 174/213/188 176/215/190
f 176/215/190 210/248/214 209/247/213
f 210/248/214 176/215/190 178/217/192
f 178/217/192 208/249/215 210/248/214
f 178/217/192 170/209/184 262/250/216
f 262/250/216 208/249/215 178/217/192
f 169/208/183 180/219/194 195/236/203
f 195/236/203 170/209/184 169/208/183
f 206/245/211 211/251/217 212/252/218
f 212/252/218 104/106/105 206/245/211
f 258/253/219 213/254/220 107/107/106
f 107/107/106 257/110/109 258/253/219
f 254/114/111 107/113/106 213/255/220
f 213/255/220 253/256/221 254/114/111
f 105/257/222 215/258/223 111/123/117
f 111/123/117 106/126/119 105/257/222
f 110/125/115 89/118/86 216/122/116
f 216/122/116 89/118/86 113/117/113
f 114/104/103 88/132/88 217/93/93
f 217/93/93 88/132/88 90/94/89
f 215/258/223 105/257/222 218/259/224
f 218/259/224 219/260/225 215/258/223
f 218/259/224 105/257/222 214/261/226
f 214/261/226 220/262/227 218/259/224
f 219/260/225 112/124/118 111/123/117
f 111/123/117 215/258/223 219/260/225
f 202/240/206 189/227/198 112/124/118
f 112/124/118 219/260/225 202/240/206
f 139/161/148 123/141/128 138/160/147
f 138/160/147 221/263/228 139/161/148
f 139/161/148 221/263/228 223/264/229
f 182/190/166 222/265/230 138/160/147
f 138/160/147 137/159/146 182/190/166
f 222/265/230 224/266/231 221/263/228
f 221/263/228 138/160/147 222/265/230
f 139/267/148 223/268/229 225/269/232
f 225/269/232 226/270/233 139/267/148
f 141/271/150 227/272/234 142/168/151
f 227/272/234 141/271/150 140/273/149
f 226/270/233 228/274/235 139/267/148
f 226/270/233 229/275/236 228/274/235
f 228/274/235 227/272/234 140/273/149
f 140/273/149 139/267/148 228/274/235
f 227/272/234 143/165/152 142/168/151
f 143/165/152 227/272/234 228/274/235
f 228/274/235 229/275/236 236/276/237
f 236/276/237 143/165/152 228/274/235
f 225/269/232 230/277/238 231/278/239
f 231/278/239 226/270/233 225/269/232
f 232/279/240 150/183/159 143/165/152
f 233/280/241 150/183/159 232/279/240
f 41/41/41 150/182/159 233/281/241
f 234/282/242 235/283/243 152/185/161
f 152/185/161 151/184/160 234/282/242
f 151/184/160 41/41/41 233/281/241
f 233/281/241 234/282/242 151/184/160
f 236/276/237 232/279/240 143/165/152
f 234/284/242 233/280/241 232/279/240
f 232/279/240 236/276/237 234/284/242
f 235/285/243 234/284/242 236/276/237
f 236/276/237 229/275/236 235/285/243
f 229/275/236 226/270/233 231/278/239
f 231/278/239 235/285/243 229/275/236
f 231/286/239 153/186/162 152/185/161
f 152/185/161 235/283/243 231/286/239
f 153/186/162 231/286/239 246/287/244
f 246/287/244 231/286/239 230/288/238
f 238/289/245 222/265/230 182/190/166
f 182/190/166 185/203/179 238/289/245
f 239/290/246 224/266/231 222/265/230
f 222/265/230 238/289/245 239/290/246
f 159/224/170 240/291/247 238/289/245
f 238/289/245 185/203/179 159/224/170
f 241/292/248 239/290/246 238/289/245
f 238/289/245 240/291/247 241/292/248
f 154/187/163 237/293/249 242/294/250
f 242/294/250 155/188/164 154/187/163
f 155/188/164 242/294/250 243/295/251
f 243/295/251 186/225/196 155/188/164
f 240/296/247 159/194/170 156/197/173
f 156/197/173 186/225/196 240/296/247
f 243/295/251 241/297/248 240/296/247
f 240/296/247 186/225/196 243/295/251
f 230/277/238 225/269/232 244/298/252
f 244/298/252 237/299/249 230/277/238
f 244/298/252 245/300/253 242/301/250
f 242/301/250 237/299/249 244/298/252
f 245/300/253 243/302/251 242/301/250
f 245/300/253 241/303/248 243/302/251
f 245/300/253 239/304/246 241/303/248
f 224/305/231 239/304/246 245/300/253
f 245/300/253 244/298/252 224/305/231
f 230/288/238 237/293/249 246/287/244
f 246/287/244 237/293/249 154/187/163
f 154/187/163 153/186/162 246/287/244
f 221/306/228 225/269/232 223/268/229
f 221/306/228 224/305/231 244/298/252
f 244/298/252 225/269/232 221/306/228
f 204/243/209 247/307/254 248/308/255
f 248/308/255 195/236/203 204/243/209
f 247/307/254 204/243/209 203/242/208
f 203/242/208 249/309/256 247/307/254
f 249/309/256 203/242/208 201/241/207
f 201/241/207 250/310/257 249/309/256
f 250/310/257 201/241/207 202/240/206
f 202/240/206 251/311/258 250/310/257
f 252/312/259 251/311/258 202/240/206
f 202/240/206 219/260/225 252/312/259
f 252/312/259 219/260/225 218/259/224
f 218/259/224 220/262/227 252/312/259
f 214/261/226 105/257/222 254/114/111
f 254/114/111 253/256/221 214/261/226
f 254/114/111 105/257/222 106/126/119
f 106/126/119 255/111/110 254/114/111
f 255/111/110 106/126/119 113/117/113
f 114/104/103 102/103/102 256/109/108
f 102/103/102 104/106/105 257/110/109
f 257/110/109 256/109/108 102/103/102
f 257/110/109 104/106/105 212/252/218
f 212/252/218 258/253/219 257/110/109
f 259/313/260 258/253/219 212/252/218
f 212/252/218 211/251/217 259/313/260
f 259/313/260 260/314/261 213/254/220
f 213/254/220 258/253/219 259/313/260
f 260/315/261 261/316/262 253/256/221
f 253/256/221 213/255/220 260/315/261
f 261/316/262 220/262/227 214/261/226
f 214/261/226 253/256/221 261/316/262
f 132/317/137 131/175/136 147/173/156
f 147/173/156 133/318/138 132/317/137
f 133/318/138 147/173/156 146/171/155
f 146/171/155 134/179/139 133/318/138
f 248/319/255 262/320/216 170/209/184
f 170/209/184 195/236/203 248/319/255
f 264/321/263 263/322/264 266/323/265
f 266/323/265 265/324/266 264/321/263
f 267/325/267 264/321/263 265/324/266
f 265/324/266 268/326/268 267/325/267
f 267/325/267 268/326/268 270/327/269
f 270/327/269 269/328/270 267/325/267
f 271/329/271 266/323/265 263/322/264
f 263/322/264 272/330/272 271/329/271
f 266/323/265 271/329/271 274/331/273
f 274/331/273 273/332/274 266/323/265
f 265/324/266 266/323/265 273/332/274
f 273/332/274 275/333/275 265/324/266
f 275/333/275 276/334/276 268/326/268
f 268/326/268 265/324/266 275/333/275
f 268/326/268 276/334/276 277/335/277
f 277/335/277 270/327/269 268/326/268
f 269/328/270 270/327/269 279/336/278
f 279/336/278 278/337/279 269/328/270
f 278/337/279 279/336/278 281/338/280
f 281/338/280 280/339/281 278/337/279
f 280/339/281 281/338/280 283/340/282
f 283/340/282 282/341/283 280/339/281
f 270/327/269 277/335/277 284/342/284
f 284/342/284 279/336/278 270/327/269
f 275/333/275 273/332/274 286/343/285
f 286/343/285 285/344/286 275/333/275
f 285/344/286 287/345/287 276/334/276
f 276/334/276 275/333/275 285/344/286
f 287/345/287 284/342/284 277/335/277
f 277/335/277 276/334/276 287/345/287
f 274/331/273 288/346/288 286/343/285
f 286/343/285 273/332/274 274/331/273
f 272/330/272 290/347/289 289/348/290
f 289/348/290 271/329/271 272/330/272
f 291/349/291 274/331/273 271/329/271
f 271/329/271 289/348/290 291/349/291
f 290/347/289 293/350/292 292/351/293
f 292/351/293 289/348/290 290/347/289
f 289/348/290 292/351/293 294/352/294
f 294/352/294 291/349/291 289/348/290
f 288/346/288 274/331/273 291/349/291
f 291/349/291 294/352/294 288/346/288
f 295/353/295 290/347/289 272/330/272
f 272/330/272 296/354/296 295/353/295
f 296/354/296 272/330/272 263/322/264
f 263/322/264 297/355/297 296/354/296
f 298/356/298 297/355/297 263/322/264
f 263/322/264 264/321/263 298/356/298
f 299/357/299 298/356/298 264/321/263
f 264/321/263 267/325/267 299/357/299
f 299/357/299 267/325/267 269/328/270
f 269/328/270 300/358/300 299/357/299
f 300/358/300 269/328/270 278/337/279
f 278/337/279 301/359/301 300/358/300
f 301/359/301 278/337/279 280/339/281
f 280/339/281 302/360/302 301/359/301
f 302/360/302 280/339/281 282/341/283
f 282/341/283 303/361/303 302/360/302
f 304/362/304 281/338/280 279/336/278
f 279/336/278 284/342/284 304/362/304
f 281/338/280 304/362/304 305/363/305
f 305/363/305 283/340/282 281/338/280
f 282/341/283 283/340/282 307/364/306
f 307/364/306 306/365/307 282/341/283
f 283/340/282 305/363/305 308/366/308
f 308/366/308 307/364/306 283/340/282
f 306/365/307 307/364/306 310/367/309
f 310/367/309 309/368/310 306/365/307
f 307/364/306 308/366/308 311/369/311
f 311/369/311 310/367/309 307/364/306
f 308/366/308 312/370/312 311/369/311
f 305/363/305 314/371/313 312/370/312
f 312/370/312 308/366/308 305/363/305
f 285/344/286 286/343/285 316/372/314
f 316/372/314 315/373/315 285/344/286
f 315/373/315 317/374/316 287/345/287
f 287/345/287 285/344/286 315/373/315
f 317/374/316 304/362/304 284/342/284
f 284/342/284 287/345/287 317/374/316
f 305/363/305 304/362/304 318/375/317
f 318/375/317 314/371/313 305/363/305
f 318/375/317 304/362/304 317/374/316
f 317/374/316 319/376/318 318/375/317
f 288/346/288 320/377/319 316/372/314
f 316/372/314 286/343/285 288/346/288
f 320/377/319 288/346/288 294/352/294
f 294/352/294 321/378/320 320/377/319
f 292/351/293 322/379/321 321/378/320
f 321/378/320 294/352/294 292/351/293
f 322/379/321 292/351/293 293/350/292
f 293/350/292 323/380/322 322/379/321
f 324/381/323 293/350/292 290/347/289
f 290/347/289 295/353/295 324/381/323
f 293/350/292 324/381/323 325/382/324
f 325/382/324 323/380/322 293/350/292
f 323/380/322 327/383/325 326/384/326
f 326/384/326 322/379/321 323/380/322
f 322/379/321 326/384/326 328/385/327
f 328/385/327 321/378/320 322/379/321
f 321/378/320 328/385/327 329/386/328
f 329/386/328 320/377/319 321/378/320
f 320/377/319 329/386/328 330/387/329
f 330/387/329 316/372/314 320/377/319
f 316/372/314 330/387/329 331/388/330
f 331/388/330 315/373/315 316/372/314
f 331/388/330 319/376/318 317/374/316
f 317/374/316 315/373/315 331/388/330
f 332/389/331 330/387/329 329/386/328
f 329/386/328 333/390/332 332/389/331
f 333/390/332 329/386/328 328/385/327
f 328/385/327 334/391/333 333/390/332
f 334/391/333 328/385/327 326/384/326
f 326/384/326 335/392/334 334/391/333
f 327/383/325 336/393/335 335/392/334
f 335/392/334 326/384/326 327/383/325
f 309/368/310 310/367/309 338/394/336
f 338/394/336 337/395/337 309/368/310
f 311/369/311 339/396/338 338/394/336
f 338/394/336 310/367/309 311/369/311
f 339/396/338 341/397/339 340/398/340
f 311/369/311 312/370/312 342/399/341
f 342/399/341 341/397/339 311/369/311
f 343/400/342 330/387/329 332/389/331
f 331/388/330 346/401/343 345/402/344
f 345/402/344 319/376/318 331/388/330
f 312/370/312 314/371/313 345/402/344
f 345/402/344 342/399/341 312/370/312
f 342/399/341 345/402/344 346/401/343
f 346/401/343 344/403/345 342/399/341
f 345/402/344 314/371/313 318/375/317
f 318/375/317 319/376/318 345/402/344
f 347/404/346 343/400/342 332/389/331
f 332/389/331 348/405/347 347/404/346
f 331/388/330 343/400/342 346/401/343
f 346/401/343 343/400/342 347/404/346
f 347/404/346 344/403/345 346/401/343
f 351/406/348 371/407/349 347/404/346
f 347/404/346 348/405/347 351/406/348
f 344/403/345 347/404/346 371/407/349
f 371/407/349 350/408/350 344/403/345
f 350/408/350 352/409/351 342/399/341
f 342/399/341 344/403/345 350/408/350
f 352/409/351 353/410/352 341/397/339
f 341/397/339 342/399/341 352/409/351
f 354/411/353 352/412/351 479/413/354
f 479/413/354 355/414/355 354/411/353
f 337/395/337 338/394/336 357/415/356
f 357/415/356 356/416/357 337/395/337
f 339/396/338 358/417/358 357/415/356
f 357/415/356 338/394/336 339/396/338
f 359/418/359 339/396/338 340/398/340
f 353/410/352 340/398/340 341/397/339
f 359/418/359 361/419/360 360/420/361
f 360/420/361 358/417/358 359/418/359
f 362/421/362 357/415/356 358/417/358
f 358/417/358 360/420/361 362/421/362
f 363/422/363 356/416/357 357/415/356
f 357/415/356 362/421/362 363/422/363
f 479/413/354 376/423/364 364/424/365
f 364/424/365 355/414/355 479/413/354
f 355/414/355 364/424/365 366/425/366
f 366/425/366 365/426/367 355/414/355
f 369/427/368 519/428/369 518/429/370
f 518/429/370 370/430/371 369/427/368
f 517/431/372 516/432/373 369/433/368
f 369/433/368 370/434/371 517/431/372
f 518/429/370 376/423/364 349/435/374
f 349/435/374 370/430/371 518/429/370
f 349/436/374 375/437/375 517/431/372
f 517/431/372 370/434/371 349/436/374
f 375/437/375 349/436/374 371/438/349
f 371/438/349 351/439/348 375/437/375
f 330/387/329 343/400/342 331/388/330
f 333/390/332 313/440/376 348/405/347
f 348/405/347 332/389/331 333/390/332
f 348/405/347 313/440/376 372/441/377
f 372/441/377 351/406/348 348/405/347
f 478/442/378 372/443/377 374/444/379
f 374/444/379 373/445/380 478/442/378
f 368/446/381 375/437/375 478/442/378
f 478/442/378 373/445/380 368/446/381
f 377/447/382 340/448/340 353/449/352
f 353/449/352 378/450/383 377/447/382
f 376/423/364 350/451/350 371/452/349
f 371/452/349 349/435/374 376/423/364
f 352/412/351 354/411/353 378/450/383
f 378/450/383 353/449/352 352/412/351
f 340/448/340 377/447/382 379/453/384
f 379/453/384 359/454/359 340/448/340
f 361/455/360 359/454/359 379/453/384
f 379/453/384 380/456/385 361/455/360
f 334/391/333 381/457/386 313/440/376
f 313/440/376 333/390/332 334/391/333
f 382/458/387 372/441/377 313/440/376
f 313/440/376 381/457/386 382/458/387
f 381/457/386 334/391/333 335/392/334
f 335/392/334 383/459/388 381/457/386
f 336/393/335 384/460/389 383/459/388
f 383/459/388 335/392/334 336/393/335
f 384/460/389 336/393/335 386/461/390
f 386/461/390 385/462/391 384/460/389
f 386/461/390 336/393/335 327/383/325
f 327/383/325 387/463/392 386/461/390
f 325/382/324 387/463/392 327/383/325
f 327/383/325 323/380/322 325/382/324
f 388/464/393 387/463/392 325/382/324
f 325/382/324 389/465/394 388/464/393
f 389/465/394 325/382/324 324/381/323
f 324/381/323 390/466/395 389/465/394
f 391/467/396 390/466/395 324/381/323
f 324/381/323 295/353/295 391/467/396
f 392/468/397 391/467/396 295/353/295
f 295/353/295 296/354/296 392/468/397
f 392/468/397 296/354/296 297/355/297
f 297/355/297 393/469/398 392/468/397
f 394/470/399 393/469/398 297/355/297
f 297/355/297 298/356/298 394/470/399
f 394/470/399 298/356/298 299/357/299
f 299/357/299 395/471/400 394/470/399
f 395/471/400 299/357/299 300/358/300
f 300/358/300 396/472/401 395/471/400
f 383/459/388 397/473/402 382/458/387
f 382/458/387 381/457/386 383/459/388
f 458/474/403 450/475/404 460/476/405
f 460/476/405 459/477/406 458/474/403
f 398/478/407 383/459/388 384/460/389
f 384/460/389 399/479/408 398/478/407
f 385/462/391 400/480/409 399/479/408
f 399/479/408 384/460/389 385/462/391
f 385/462/391 386/461/390 402/481/410
f 402/481/410 401/482/411 385/462/391
f 403/483/412 402/481/410 386/461/390
f 386/461/390 387/463/392 403/483/412
f 403/483/412 387/463/392 388/464/393
f 388/464/393 404/484/413 403/483/412
f 405/485/414 404/486/413 388/487/393
f 388/487/393 406/488/415 405/485/414
f 406/488/415 388/487/393 389/489/394
f 389/489/394 407/490/416 406/488/415
f 407/490/416 389/489/394 390/491/395
f 390/491/395 408/492/417 407/490/416
f 408/492/417 390/491/395 391/493/396
f 391/493/396 409/494/418 408/492/417
f 409/494/418 391/493/396 392/495/397
f 392/495/397 393/496/398 409/494/418
f 406/488/415 407/490/416 411/497/419
f 411/497/419 410/498/420 406/488/415
f 396/499/401 411/497/419 407/490/416
f 407/490/416 408/492/417 396/499/401
f 301/359/301 411/500/419 396/472/401
f 396/472/401 300/358/300 301/359/301
f 302/360/302 410/501/420 411/500/419
f 411/500/419 301/359/301 302/360/302
f 303/361/303 412/502/421 410/501/420
f 410/501/420 302/360/302 303/361/303
f 412/503/421 405/485/414 406/488/415
f 406/488/415 410/498/420 412/503/421
f 303/361/303 282/341/283 306/365/307
f 306/365/307 413/504/422 303/361/303
f 414/505/423 413/504/422 306/365/307
f 306/365/307 309/368/310 414/505/423
f 414/505/423 309/368/310 337/395/337
f 337/395/337 415/506/424 414/505/423
f 415/506/424 337/395/337 356/416/357
f 356/416/357 416/507/425 415/506/424
f 417/508/426 416/507/425 356/416/357
f 356/416/357 363/422/363 417/508/426
f 399/479/408 444/509/427 427/510/428
f 427/510/428 398/478/407 399/479/408
f 445/511/429 449/512/430 427/510/428
f 427/510/428 446/513/431 445/511/429
f 421/514/432 418/515/433 419/516/434
f 419/516/434 422/517/435 421/514/432
f 419/516/434 420/518/436 423/519/437
f 423/519/437 422/517/435 419/516/434
f 420/518/436 425/520/438 424/521/439
f 424/521/439 423/519/437 420/518/436
f 420/518/436 360/420/361 361/419/360
f 361/419/360 425/520/438 420/518/436
f 428/522/440 361/455/360 380/456/385
f 447/523/441 446/513/431 427/510/428
f 427/510/428 444/509/427 447/523/441
f 425/524/438 361/455/360 428/522/440
f 428/522/440 426/525/442 425/524/438
f 429/526/443 426/525/442 428/522/440
f 428/522/440 430/527/444 429/526/443
f 430/527/444 432/528/445 431/529/446
f 431/529/446 429/526/443 430/527/444
f 341/397/339 339/396/338 311/369/311
f 339/396/338 359/418/359 358/417/358
f 355/414/355 365/426/367 433/530/447
f 433/530/447 354/411/353 355/414/355
f 434/531/448 433/530/447 436/532/449
f 436/532/449 435/533/450 434/531/448
f 434/531/448 354/411/353 433/530/447
f 434/531/448 378/450/383 354/411/353
f 435/533/450 377/447/382 378/450/383
f 378/450/383 434/531/448 435/533/450
f 435/533/450 436/532/449 438/534/451
f 438/534/451 437/535/452 435/533/450
f 437/535/452 438/534/451 440/536/453
f 440/536/453 439/537/454 437/535/452
f 430/527/444 439/537/454 440/536/453
f 440/536/453 432/528/445 430/527/444
f 439/537/454 430/527/444 428/522/440
f 428/522/440 380/456/385 439/537/454
f 437/535/452 379/453/384 377/447/382
f 377/447/382 435/533/450 437/535/452
f 379/453/384 437/535/452 439/537/454
f 439/537/454 380/456/385 379/453/384
f 429/526/443 431/529/446 442/538/455
f 442/538/455 441/539/456 429/526/443
f 443/540/457 426/525/442 429/526/443
f 429/526/443 441/539/456 443/540/457
f 443/540/457 424/541/439 425/524/438
f 425/524/438 426/525/442 443/540/457
f 418/515/433 363/422/363 362/421/362
f 362/421/362 419/516/434 418/515/433
f 419/516/434 362/421/362 360/420/361
f 360/420/361 420/518/436 419/516/434
f 422/542/435 423/543/437 445/511/429
f 445/511/429 446/513/431 422/542/435
f 421/544/432 422/542/435 446/513/431
f 446/513/431 447/523/441 421/544/432
f 417/508/426 363/422/363 418/515/433
f 418/515/433 448/545/458 417/508/426
f 397/473/402 449/512/430 453/546/459
f 383/459/388 449/512/430 397/473/402
f 372/443/377 382/547/387 451/548/460
f 451/548/460 374/444/379 372/443/377
f 452/549/461 451/548/460 382/547/387
f 382/547/387 397/550/402 452/549/461
f 453/546/459 449/512/430 445/511/429
f 445/511/429 454/551/462 453/546/459
f 424/552/439 454/551/462 445/511/429
f 445/511/429 423/543/437 424/552/439
f 455/553/463 454/554/462 424/541/439
f 424/541/439 443/540/457 455/553/463
f 455/553/463 443/540/457 441/539/456
f 441/539/456 456/555/464 455/553/463
f 457/556/465 456/555/464 441/539/456
f 441/539/456 442/538/455 457/556/465
f 455/553/463 458/474/403 454/554/462
f 454/554/462 458/474/403 459/477/406
f 459/477/406 453/557/459 454/554/462
f 397/550/402 453/557/459 459/477/406
f 459/477/406 452/549/461 397/550/402
f 455/553/463 456/555/464 450/475/404
f 450/475/404 458/474/403 455/553/463
f 449/512/430 398/478/407 427/510/428
f 449/512/430 383/459/388 398/478/407
f 460/476/405 461/558/466 452/549/461
f 452/549/461 459/477/406 460/476/405
f 452/549/461 461/558/466 462/559/467
f 462/559/467 451/548/460 452/549/461
f 451/548/460 462/559/467 464/560/468
f 463/561/469 464/560/468 462/559/467
f 462/559/467 461/558/466 463/561/469
f 465/562/470 463/561/469 461/558/466
f 461/558/466 460/476/405 465/562/470
f 465/562/470 460/476/405 450/475/404
f 450/475/404 466/563/471 465/562/470
f 456/555/464 457/556/465 466/563/471
f 466/563/471 450/475/404 456/555/464
f 365/426/367 366/425/366 468/564/472
f 468/564/472 467/565/473 365/426/367
f 467/565/473 469/566/474 433/530/447
f 433/530/447 365/426/367 467/565/473
f 468/564/472 469/566/474 467/565/473
f 433/530/447 469/566/474 471/567/475
f 471/567/475 436/532/449 433/530/447
f 471/567/475 472/568/476 438/534/451
f 438/534/451 436/532/449 471/567/475
f 472/568/476 470/569/477 440/536/453
f 440/536/453 438/534/451 472/568/476
f 440/536/453 470/569/477 524/570/478
f 524/570/478 432/528/445 440/536/453
f 431/529/446 432/528/445 457/556/465
f 457/556/465 442/538/455 431/529/446
f 468/564/472 366/425/366 474/571/479
f 474/571/479 473/572/480 468/564/472
f 520/573/481 519/428/369 369/427/368
f 369/427/368 475/574/482 520/573/481
f 516/432/373 515/575/483 475/576/482
f 475/576/482 369/433/368 516/432/373
f 367/577/484 368/446/381 373/445/380
f 373/445/380 477/578/485 367/577/484
f 372/443/377 478/442/378 351/439/348
f 478/442/378 375/437/375 351/439/348
f 376/423/364 479/413/354 350/451/350
f 479/413/354 352/412/351 350/451/350
f 477/578/485 481/579/486 480/580/487
f 480/580/487 367/577/484 477/578/485
f 480/580/487 482/581/488 476/582/489
f 476/582/489 367/577/484 480/580/487
f 481/579/486 477/578/485 373/445/380
f 373/445/380 374/444/379 481/579/486
f 464/560/468 481/579/486 374/444/379
f 374/444/379 451/548/460 464/560/468
f 401/482/411 483/583/490 400/480/409
f 400/480/409 385/462/391 401/482/411
f 401/482/411 485/584/491 483/583/490
f 444/509/427 399/479/408 400/480/409
f 400/480/409 484/585/492 444/509/427
f 484/585/492 400/480/409 483/583/490
f 483/583/490 486/586/493 484/585/492
f 401/587/411 488/588/494 487/589/495
f 487/589/495 485/590/491 401/587/411
f 403/591/412 404/486/413 489/592/496
f 489/592/496 402/593/410 403/591/412
f 488/588/494 401/587/411 490/594/497
f 488/588/494 490/594/497 491/595/498
f 490/594/497 401/587/411 402/593/410
f 402/593/410 489/592/496 490/594/497
f 489/592/496 404/486/413 405/485/414
f 405/485/414 490/594/497 489/592/496
f 490/594/497 405/485/414 498/596/499
f 498/596/499 491/595/498 490/594/497
f 487/589/495 488/588/494 493/597/500
f 493/597/500 492/598/501 487/589/495
f 494/599/502 405/485/414 412/503/421
f 495/600/503 494/599/502 412/503/421
f 303/361/303 495/601/503 412/502/421
f 496/602/504 413/504/422 414/505/423
f 414/505/423 497/603/505 496/602/504
f 413/504/422 496/602/504 495/601/503
f 495/601/503 303/361/303 413/504/422
f 498/596/499 405/485/414 494/599/502
f 496/604/504 498/596/499 494/599/502
f 494/599/502 495/600/503 496/604/504
f 497/605/505 491/595/498 498/596/499
f 498/596/499 496/604/504 497/605/505
f 491/595/498 497/605/505 493/597/500
f 493/597/500 488/588/494 491/595/498
f 493/606/500 497/603/505 414/505/423
f 414/505/423 415/506/424 493/606/500
f 415/506/424 508/607/506 493/606/500
f 508/607/506 492/608/501 493/606/500
f 500/609/507 447/523/441 444/509/427
f 444/509/427 484/585/492 500/609/507
f 501/610/508 500/609/507 484/585/492
f 484/585/492 486/586/493 501/610/508
f 421/544/432 447/523/441 500/609/507
f 500/609/507 502/611/509 421/544/432
f 503/612/510 502/611/509 500/609/507
f 500/609/507 501/610/508 503/612/510
f 416/507/425 417/508/426 504/613/511
f 504/613/511 499/614/512 416/507/425
f 417/508/426 448/545/458 505/615/513
f 505/615/513 504/613/511 417/508/426
f 502/616/509 448/545/458 418/515/433
f 418/515/433 421/514/432 502/616/509
f 505/615/513 448/545/458 502/616/509
f 502/616/509 503/617/510 505/615/513
f 492/598/501 499/618/512 506/619/514
f 506/619/514 487/589/495 492/598/501
f 506/619/514 499/618/512 504/620/511
f 504/620/511 507/621/515 506/619/514
f 507/621/515 504/620/511 505/622/513
f 507/621/515 505/622/513 503/623/510
f 507/621/515 503/623/510 501/624/508
f 486/625/493 506/619/514 507/621/515
f 507/621/515 501/624/508 486/625/493
f 492/608/501 508/607/506 499/614/512
f 508/607/506 415/506/424 416/507/425
f 416/507/425 499/614/512 508/607/506
f 483/626/490 485/590/491 487/589/495
f 483/626/490 487/589/495 506/619/514
f 506/619/514 486/625/493 483/626/490
f 466/563/471 457/556/465 510/627/516
f 510/627/516 509/628/517 466/563/471
f 509/628/517 511/629/518 465/562/470
f 465/562/470 466/563/471 509/628/517
f 511/629/518 512/630/519 463/561/469
f 463/561/469 465/562/470 511/629/518
f 512/630/519 513/631/520 464/560/468
f 464/560/468 463/561/469 512/630/519
f 514/632/521 481/579/486 464/560/468
f 464/560/468 513/631/520 514/632/521
f 514/632/521 480/580/487 481/579/486
f 480/580/487 514/632/521 482/581/488
f 476/582/489 515/575/483 516/432/373
f 516/432/373 367/577/484 476/582/489
f 516/432/373 517/431/372 368/446/381
f 368/446/381 367/577/484 516/432/373
f 517/431/372 375/437/375 368/446/381
f 376/423/364 518/429/370 364/424/365
f 364/424/365 518/429/370 519/428/369
f 519/428/369 366/425/366 364/424/365
f 519/428/369 520/573/481 474/571/479
f 474/571/479 366/425/366 519/428/369
f 521/633/522 473/572/480 474/571/479
f 474/571/479 520/573/481 521/633/522
f 521/633/522 520/573/481 475/574/482
f 475/574/482 522/634/523 521/633/522
f 522/635/523 475/576/482 515/575/483
f 515/575/483 523/636/524 522/635/523
f 523/636/524 515/575/483 476/582/489
f 476/582/489 482/581/488 523/636/524
f 394/637/399 395/638/400 409/494/418
f 409/494/418 393/496/398 394/637/399
f 395/638/400 396/499/401 408/492/417
f 408/492/417 409/494/418 395/638/400
f 510/639/516 457/556/465 432/528/445
f 432/528/445 524/640/478 510/639/516
