# 3ds Max Wavefront OBJ Exporter v0.97b - (c)2007 guruware
# File Created: 06.09.2018 19:26:14

mtllib 1111.mtl

#
# object Box001
#

v  41.1858 5.3164 -159.3592
v  41.1858 5.3164 199.3573
v  2.8608 5.3164 199.3573
v  -40.8388 5.3164 199.3573
v  -40.8388 5.3164 -159.3592
v  41.1858 89.6594 -159.3592
v  2.8608 89.6594 199.3573
v  41.1858 89.6594 199.3573
v  -40.8388 89.6594 -159.3592
v  -40.8388 12.6193 -40.0422
v  -40.8388 12.6193 -152.1412
v  -40.8388 89.6594 199.3573
v  -40.8388 82.3564 -40.0422
v  -40.8388 82.3564 -152.1412
v  41.1858 25.0588 138.2401
v  41.1858 25.0588 173.3169
v  41.1858 69.9169 138.2401
v  41.1858 69.9169 173.3169
v  36.3906 32.1488 199.3572
v  4.9686 32.1488 199.3572
v  36.3906 79.5671 199.3572
v  4.9686 79.5671 199.3572
v  -35.3406 81.5681 199.3573
v  -0.3831 81.5681 199.3573
v  -35.3406 9.1008 199.3573
v  -0.3831 9.1008 199.3573
v  -42.7534 4.0488 -161.0365
v  -42.7534 9.7212 -161.0365
v  -37.0809 9.7212 -161.0365
v  -37.0809 4.0488 -161.0365
v  -42.7534 4.0488 200.8951
v  -37.0809 4.0488 200.8951
v  -37.0809 9.7212 200.8951
v  -42.7534 9.7212 200.8951
v  1.2299 8.0624 196.9854
v  1.2299 8.0624 199.5405
v  -36.4141 8.0624 199.5405
v  -36.4141 8.0624 196.9854
v  1.2299 82.5887 196.9855
v  1.2299 82.5887 199.5405
v  -36.4141 82.5887 196.9855
v  -36.4141 82.5887 199.5405
v  -2.5704 10.8222 196.9855
v  -2.5704 79.8289 196.9855
v  -32.6137 79.8289 196.9855
v  -32.6137 10.8222 196.9855
v  -2.5704 79.8289 199.5405
v  -2.5704 10.8222 199.5405
v  -32.6137 10.8222 199.5405
v  -32.6137 79.8289 199.5405
v  -12.9432 10.9594 226.8595
v  -12.9432 79.7276 226.8595
v  -2.5156 79.7276 198.2099
v  -2.5156 10.9594 198.2099
v  -12.3066 10.9594 227.0913
v  -1.8790 10.9594 198.4416
v  -1.8789 79.7276 198.4416
v  -12.3066 79.7276 227.0913
v  37.0994 31.5276 197.0271
v  37.0994 31.5276 199.5822
v  4.2027 31.5276 199.5822
v  4.2027 31.5276 197.0271
v  37.0994 80.2015 197.0271
v  37.0994 80.2015 199.5822
v  4.2027 80.2015 197.0271
v  4.2027 80.2015 199.5822
v  33.8440 34.2874 197.0271
v  33.8440 77.4417 197.0271
v  7.4581 77.4417 197.0271
v  7.4581 34.2874 197.0271
v  33.8440 77.4417 199.5822
v  33.8440 34.2874 199.5822
v  7.4581 34.2874 199.5822
v  7.4581 77.4417 199.5822
v  39.7343 23.4809 136.1792
v  41.7146 23.4809 136.1792
v  41.7146 23.4809 175.7760
v  39.7343 23.4809 175.7760
v  39.7343 70.8287 136.1792
v  41.7146 70.8287 136.1792
v  39.7343 70.8287 175.7760
v  41.7146 70.8287 175.7760
v  39.7343 25.6199 139.1246
v  39.7343 68.6898 139.1246
v  39.7343 68.6898 172.8306
v  39.7343 25.6199 172.8306
v  41.7146 68.6898 139.1246
v  41.7146 25.6199 139.1246
v  41.7146 25.6199 172.8306
v  41.7146 68.6898 172.8306
v  -41.3173 10.2082 -94.6098
v  -41.3173 10.2082 -96.8587
v  -38.6205 10.2082 -96.8587
v  -38.6205 10.2082 -94.6098
v  -38.6205 84.5180 -37.3748
v  -41.3173 84.5180 -37.3748
v  -41.3173 10.2082 -37.3748
v  -38.6205 10.2082 -37.3748
v  -41.3173 84.5180 -96.8587
v  -41.3173 84.5180 -94.6098
v  -38.6205 84.5180 -94.6098
v  -38.6205 84.5180 -96.8587
v  -38.6205 10.2082 -154.0938
v  -41.3173 10.2082 -154.0938
v  -41.3173 84.5180 -154.0938
v  -38.6205 84.5180 -154.0938
v  -38.6205 13.5392 -40.7315
v  -38.6205 81.1871 -40.7315
v  -38.6205 81.1871 -150.7371
v  -38.6205 13.5392 -150.7371
v  -41.3173 81.1871 -40.7315
v  -41.3173 13.5392 -40.7315
v  -41.3173 13.5392 -150.7371
v  -41.3173 81.1871 -150.7371
v  -38.6205 13.5392 -96.8571
v  -38.6205 13.5392 -94.6115
v  -38.6205 81.1871 -94.6115
v  -38.6205 81.1871 -96.8571
v  -41.3173 81.1871 -96.8571
v  -41.3173 81.1871 -94.6115
v  -41.3173 13.5392 -94.6115
v  -41.3173 13.5392 -96.8571
v  -41.3173 10.2082 -122.4315
v  -38.6205 10.2082 -122.4315
v  -38.6205 10.2082 -69.0371
v  -41.3173 10.2082 -69.0371
v  -41.3173 84.5180 -69.0371
v  -38.6205 84.5180 -69.0371
v  -38.6205 84.5180 -122.4315
v  -41.3173 84.5180 -122.4315
v  -38.6205 13.5392 -122.4006
v  -38.6205 13.5392 -69.0680
v  -38.6205 81.1871 -69.0680
v  -38.6205 81.1871 -122.4006
v  -41.3173 81.1871 -122.4006
v  -41.3173 81.1871 -69.0680
v  -41.3173 13.5392 -69.0680
v  -41.3173 13.5392 -122.4006
v  -41.3173 10.2082 -117.3236
v  -38.6205 10.2082 -117.3236
v  -38.6205 10.2082 -74.1450
v  -41.3173 10.2082 -74.1450
v  -41.3173 84.5180 -74.1450
v  -38.6205 84.5180 -74.1450
v  -38.6205 84.5180 -117.3236
v  -41.3173 84.5180 -117.3236
v  -38.6205 13.5392 -117.2927
v  -38.6205 13.5392 -74.1759
v  -38.6205 81.1871 -74.1759
v  -38.6205 81.1871 -117.2927
v  -41.3173 81.1871 -117.2927
v  -41.3173 81.1871 -74.1759
v  -41.3173 13.5392 -74.1759
v  -41.3173 13.5392 -117.2927
v  -38.6205 62.6856 -122.4006
v  -38.6205 66.2090 -122.4006
v  -38.6205 66.2090 -117.2927
v  -38.6205 62.6856 -117.2927
v  -41.3173 62.6856 -122.4006
v  -41.3173 66.2090 -122.4006
v  -41.3173 62.6856 -117.2927
v  -41.3173 66.2090 -117.2927
v  -41.3173 62.6856 -69.0680
v  -41.3173 66.2090 -69.0680
v  -41.3173 66.2090 -74.1759
v  -41.3173 62.6856 -74.1759
v  -38.6205 62.6856 -69.0680
v  -38.6205 66.2090 -69.0680
v  -38.6205 62.6856 -74.1759
v  -38.6205 66.2090 -74.1759
v  -38.6205 66.2090 -96.8571
v  -38.6205 66.2090 -94.6115
v  -38.6205 62.6856 -94.6115
v  -38.6205 62.6856 -96.8571
v  -41.3173 62.6856 -96.8571
v  -41.3173 62.6856 -94.6115
v  -41.3173 66.2090 -94.6115
v  -41.3173 66.2090 -96.8571
v  -42.7534 85.5035 -161.0366
v  -42.7534 91.1760 -161.0366
v  -37.0809 91.1760 -161.0366
v  -37.0809 85.5035 -161.0366
v  -42.7534 85.5035 200.8951
v  -37.0809 85.5035 200.8951
v  -37.0809 91.1760 200.8951
v  -42.7534 91.1760 200.8951
v  38.2599 4.0488 -161.0366
v  38.2599 9.7212 -161.0366
v  43.9324 9.7212 -161.0366
v  43.9324 4.0488 -161.0366
v  38.2599 4.0488 200.8951
v  43.9324 4.0488 200.8951
v  43.9324 9.7212 200.8951
v  38.2599 9.7212 200.8951
v  38.2599 85.5035 -161.0366
v  38.2599 91.1760 -161.0366
v  43.9324 91.1760 -161.0366
v  43.9324 85.5035 -161.0366
v  38.2599 85.5035 200.8951
v  43.9324 85.5035 200.8951
v  43.9324 91.1760 200.8951
v  38.2599 91.1760 200.8951
v  21.1434 59.4391 198.3046
v  20.1587 59.4391 198.3046
v  20.1587 78.7354 198.3046
v  21.1434 78.7354 198.3046
v  21.1434 59.4391 199.1829
v  21.1434 78.7354 199.1829
v  20.1587 78.7354 199.1829
v  20.1587 59.4391 199.1829
v  34.4283 69.5796 198.3046
v  34.4283 68.5949 198.3046
v  6.8739 68.5949 198.3046
v  6.8739 69.5796 198.3046
v  34.4283 69.5796 199.1829
v  6.8739 69.5796 199.1829
v  6.8739 68.5949 199.1829
v  34.4283 68.5949 199.1829
v  34.4283 60.4183 198.3046
v  34.4283 59.4336 198.3046
v  6.8739 59.4336 198.3046
v  6.8739 60.4183 198.3046
v  34.4283 60.4183 199.1829
v  6.8739 60.4183 199.1829
v  6.8739 59.4336 199.1829
v  34.4283 59.4336 199.1829
v  41.0712 24.7262 155.8016
v  40.0865 24.7262 155.8016
v  40.0865 69.3320 155.8016
v  41.0712 69.3320 155.8016
v  41.0712 24.7262 156.6800
v  41.0712 69.3320 156.6800
v  40.0865 69.3320 156.6800
v  40.0865 24.7262 156.6800
# 234 vertices

vn 0.5774 -0.5774 -0.5774
vn 0.5774 -0.5773 0.5774
vn 0.0000 -0.7071 0.7071
vn -0.5774 -0.5774 0.5774
vn -0.5774 -0.5774 -0.5774
vn 0.5774 0.5774 -0.5774
vn 0.0000 0.7071 0.7071
vn 0.5773 0.5773 0.5774
vn -0.5774 0.5774 -0.5774
vn -1.0000 0.0000 -0.0000
vn -1.0000 0.0000 0.0000
vn -0.5774 0.5774 0.5774
vn -1.0000 -0.0000 -0.0000
vn -1.0000 -0.0000 0.0000
vn 1.0000 0.0000 0.0000
vn 1.0000 0.0000 -0.0000
vn 1.0000 -0.0000 0.0000
vn -0.0000 0.0000 1.0000
vn 0.0000 0.0000 1.0000
vn -0.0000 -0.0000 1.0000
vn 0.0000 -0.0000 1.0000
vn 0.5774 -0.5774 0.5774
vn 0.5774 0.5774 0.5774
vn -0.3015 0.3015 -0.9045
vn -0.3015 -0.3015 -0.9045
vn 0.3015 -0.3015 -0.9045
vn 0.3015 0.3015 -0.9045
vn -0.3015 -0.3015 0.9045
vn -0.3015 0.3015 0.9045
vn 0.3015 0.3015 0.9045
vn 0.3015 -0.3015 0.9045
vn -0.7518 -0.5665 0.3374
vn -0.7518 0.5665 0.3374
vn -0.3306 0.5900 -0.7366
vn -0.3306 -0.5900 -0.7366
vn 0.3306 -0.5900 0.7366
vn 0.7518 -0.5665 -0.3374
vn 0.7518 0.5665 -0.3374
vn 0.3306 0.5900 0.7366
vn 0.5773 -0.5774 -0.5774
vn -0.9045 0.3015 0.3015
vn -0.9045 -0.3015 0.3015
vn -0.9045 -0.3015 -0.3015
vn -0.9045 0.3015 -0.3015
vn 0.9045 -0.3015 0.3015
vn 0.9045 0.3015 0.3015
vn 0.9045 0.3015 -0.3015
vn 0.9045 -0.3015 -0.3015
vn -0.7071 -0.7071 -0.0000
vn 0.7071 -0.7071 0.0000
vn -0.7071 0.7071 -0.0000
vn 0.7071 0.7071 0.0000
vn 0.7071 -0.7071 -0.0000
vn -0.7071 -0.7071 0.0000
vn 0.7071 -0.0000 -0.7071
vn 0.7071 0.0000 -0.7071
vn -0.7071 -0.0000 -0.7071
vn -0.7071 0.0000 -0.7071
vn -0.7071 -0.0000 0.7071
vn -0.7071 0.0000 0.7071
vn 0.7071 -0.0000 0.7071
vn 0.7071 0.0000 0.7071
# 62 vertex normals

vt 0.0143 0.8302 0.0000
vt 0.0143 0.1763 0.0000
vt 0.0801 0.1763 0.0000
vt 0.1551 0.1766 0.0000
vt 0.1551 0.8299 0.0000
vt 0.4694 0.8296 0.0000
vt 0.4000 0.1769 0.0000
vt 0.4694 0.1769 0.0000
vt 0.4694 0.9854 0.0000
vt 0.3208 0.9854 0.0000
vt 0.3208 0.8296 0.0000
vt 0.1695 0.6125 0.0000
vt 0.1695 0.8165 0.0000
vt 0.3208 0.1769 0.0000
vt 0.3064 0.6125 0.0000
vt 0.3064 0.8165 0.0000
vt 0.6264 0.1769 0.0000
vt 0.6264 0.8296 0.0000
vt 0.5897 0.2881 0.0000
vt 0.5897 0.2242 0.0000
vt 0.5062 0.2881 0.0000
vt 0.5062 0.2242 0.0000
vt 0.4000 0.0122 0.0000
vt 0.4694 0.0122 0.0000
vt 0.4607 0.0646 0.0000
vt 0.4038 0.0646 0.0000
vt 0.4607 0.1571 0.0000
vt 0.4038 0.1571 0.0000
vt 0.3307 0.1611 0.0000
vt 0.3941 0.1611 0.0000
vt 0.3208 0.0122 0.0000
vt 0.3307 0.0196 0.0000
vt 0.3941 0.0196 0.0000
vt 0.9495 0.9720 0.0000
vt 0.9642 0.9720 0.0000
vt 0.9642 0.9929 0.0000
vt 0.9495 0.9929 0.0000
vt 0.9495 0.0298 0.0000
vt 0.9495 0.0089 0.0000
vt 0.9642 0.0089 0.0000
vt 0.9642 0.0298 0.0000
vt 0.9385 0.9720 0.0000
vt 0.9385 0.0298 0.0000
vt 0.9900 0.9720 0.0000
vt 0.9752 0.9720 0.0000
vt 0.9752 0.0298 0.0000
vt 0.9900 0.0298 0.0000
vt 0.8749 0.5930 0.0000
vt 0.8708 0.5931 0.0000
vt 0.8708 0.5080 0.0000
vt 0.8749 0.5081 0.0000
vt 0.6462 0.5972 0.0000
vt 0.6462 0.5931 0.0000
vt 0.8708 0.5972 0.0000
vt 0.6421 0.5081 0.0000
vt 0.6462 0.5080 0.0000
vt 0.6421 0.5930 0.0000
vt 0.8708 0.5039 0.0000
vt 0.6462 0.5039 0.0000
vt 0.8625 0.6057 0.0000
vt 0.6545 0.6057 0.0000
vt 0.6462 0.6818 0.0000
vt 0.6545 0.6732 0.0000
vt 0.8625 0.6732 0.0000
vt 0.8708 0.6818 0.0000
vt 0.6545 0.5840 0.0000
vt 0.8625 0.5840 0.0000
vt 0.8625 0.5165 0.0000
vt 0.6545 0.5165 0.0000
vt 0.8605 0.6712 0.0000
vt 0.8605 0.6078 0.0000
vt 0.6565 0.6078 0.0000
vt 0.6565 0.6712 0.0000
vt 0.9186 0.6925 0.0000
vt 0.9186 0.9835 0.0000
vt 0.7870 0.9835 0.0000
vt 0.7870 0.6925 0.0000
vt 0.6492 0.6925 0.0000
vt 0.7849 0.6925 0.0000
vt 0.7849 0.9835 0.0000
vt 0.6492 0.9835 0.0000
vt 0.6463 0.6906 0.0000
vt 0.7861 0.6906 0.0000
vt 0.7861 0.9854 0.0000
vt 0.6463 0.9854 0.0000
vt 0.6471 0.9835 0.0000
vt 0.6471 0.6925 0.0000
vt 0.6252 0.0140 0.0000
vt 0.6252 0.0180 0.0000
vt 0.5519 0.0180 0.0000
vt 0.5519 0.0140 0.0000
vt 0.6293 0.1637 0.0000
vt 0.6252 0.1637 0.0000
vt 0.6293 0.0180 0.0000
vt 0.5519 0.1678 0.0000
vt 0.5519 0.1637 0.0000
vt 0.6252 0.1678 0.0000
vt 0.5473 0.0185 0.0000
vt 0.5473 0.1642 0.0000
vt 0.4740 0.0185 0.0000
vt 0.4812 0.0267 0.0000
vt 0.4812 0.1560 0.0000
vt 0.4740 0.1642 0.0000
vt 0.5401 0.1560 0.0000
vt 0.5401 0.0267 0.0000
vt 0.6180 0.1555 0.0000
vt 0.6180 0.0263 0.0000
vt 0.5591 0.0263 0.0000
vt 0.5591 0.1555 0.0000
vt 0.6160 0.0283 0.0000
vt 0.5611 0.0283 0.0000
vt 0.6160 0.1534 0.0000
vt 0.5611 0.1534 0.0000
vt 0.1897 0.0875 0.0000
vt 0.1952 0.0875 0.0000
vt 0.1952 0.1650 0.0000
vt 0.1897 0.1650 0.0000
vt 0.0139 0.0875 0.0000
vt 0.0139 0.0820 0.0000
vt 0.1897 0.0820 0.0000
vt 0.0139 0.1650 0.0000
vt 0.0084 0.1650 0.0000
vt 0.0084 0.0875 0.0000
vt 0.1897 0.1705 0.0000
vt 0.0139 0.1705 0.0000
vt 0.1818 0.0932 0.0000
vt 0.0219 0.0932 0.0000
vt 0.0219 0.1592 0.0000
vt 0.1818 0.1592 0.0000
vt 0.0219 0.0762 0.0000
vt 0.1818 0.0762 0.0000
vt 0.1897 0.0044 0.0000
vt 0.1818 0.0102 0.0000
vt 0.0219 0.0102 0.0000
vt 0.0139 0.0044 0.0000
vt 0.1791 0.1565 0.0000
vt 0.1791 0.0960 0.0000
vt 0.0246 0.0960 0.0000
vt 0.0246 0.1565 0.0000
vt 0.9328 0.1302 0.0000
vt 0.9328 0.1348 0.0000
vt 0.9251 0.1348 0.0000
vt 0.9251 0.1302 0.0000
vt 0.6407 0.0147 0.0000
vt 0.6407 0.0070 0.0000
vt 0.9251 0.0070 0.0000
vt 0.9251 0.0147 0.0000
vt 0.6330 0.1348 0.0000
vt 0.6330 0.1302 0.0000
vt 0.6407 0.1302 0.0000
vt 0.6407 0.1348 0.0000
vt 0.9251 0.2504 0.0000
vt 0.9251 0.2580 0.0000
vt 0.6407 0.2580 0.0000
vt 0.6407 0.2504 0.0000
vt 0.9123 0.0215 0.0000
vt 0.6534 0.0215 0.0000
vt 0.6534 0.2436 0.0000
vt 0.9123 0.2436 0.0000
vt 0.6407 0.4937 0.0000
vt 0.6534 0.4869 0.0000
vt 0.9123 0.4869 0.0000
vt 0.9251 0.4937 0.0000
vt 0.9123 0.2648 0.0000
vt 0.6534 0.2648 0.0000
vt 0.9123 0.1348 0.0000
vt 0.9123 0.1302 0.0000
vt 0.6534 0.1302 0.0000
vt 0.6534 0.1348 0.0000
vt 0.6407 0.3782 0.0000
vt 0.6407 0.3736 0.0000
vt 0.6534 0.3736 0.0000
vt 0.6534 0.3781 0.0000
vt 0.9251 0.3736 0.0000
vt 0.9251 0.3782 0.0000
vt 0.9123 0.3781 0.0000
vt 0.9123 0.3736 0.0000
vt 0.9085 0.0253 0.0000
vt 0.6573 0.0253 0.0000
vt 0.6573 0.2397 0.0000
vt 0.9085 0.2397 0.0000
vt 0.9328 0.1864 0.0000
vt 0.9328 0.2504 0.0000
vt 0.9251 0.1864 0.0000
vt 0.9251 0.0786 0.0000
vt 0.9328 0.0147 0.0000
vt 0.9328 0.0786 0.0000
vt 0.6330 0.0786 0.0000
vt 0.6330 0.0147 0.0000
vt 0.6407 0.0786 0.0000
vt 0.6407 0.1864 0.0000
vt 0.6330 0.2504 0.0000
vt 0.6330 0.1864 0.0000
vt 0.9123 0.1864 0.0000
vt 0.9123 0.0787 0.0000
vt 0.6534 0.0787 0.0000
vt 0.6534 0.1864 0.0000
vt 0.6407 0.3220 0.0000
vt 0.6534 0.3220 0.0000
vt 0.6534 0.4297 0.0000
vt 0.6407 0.4298 0.0000
vt 0.9251 0.4298 0.0000
vt 0.9123 0.4297 0.0000
vt 0.9123 0.3220 0.0000
vt 0.9251 0.3220 0.0000
vt 0.9085 0.1902 0.0000
vt 0.9085 0.0748 0.0000
vt 0.6573 0.0748 0.0000
vt 0.6573 0.1902 0.0000
vt 0.9328 0.1761 0.0000
vt 0.9251 0.1761 0.0000
vt 0.9251 0.0889 0.0000
vt 0.9328 0.0889 0.0000
vt 0.6330 0.0889 0.0000
vt 0.6407 0.0889 0.0000
vt 0.6407 0.1761 0.0000
vt 0.6330 0.1761 0.0000
vt 0.9123 0.1760 0.0000
vt 0.9123 0.0890 0.0000
vt 0.6534 0.0890 0.0000
vt 0.6534 0.1760 0.0000
vt 0.6407 0.3323 0.0000
vt 0.6534 0.3324 0.0000
vt 0.6534 0.4194 0.0000
vt 0.6407 0.4195 0.0000
vt 0.9251 0.4195 0.0000
vt 0.9123 0.4194 0.0000
vt 0.9123 0.3324 0.0000
vt 0.9251 0.3323 0.0000
vt 0.7242 0.1864 0.0000
vt 0.7108 0.1864 0.0000
vt 0.7108 0.1760 0.0000
vt 0.7242 0.1760 0.0000
vt 0.7242 0.1898 0.0000
vt 0.7108 0.1898 0.0000
vt 0.7242 0.3324 0.0000
vt 0.7108 0.3324 0.0000
vt 0.7108 0.3220 0.0000
vt 0.7242 0.3220 0.0000
vt 0.7242 0.4297 0.0000
vt 0.7108 0.4297 0.0000
vt 0.7108 0.4194 0.0000
vt 0.7242 0.4194 0.0000
vt 0.7242 0.0787 0.0000
vt 0.7108 0.0787 0.0000
vt 0.7108 0.0747 0.0000
vt 0.7242 0.0747 0.0000
vt 0.7242 0.0890 0.0000
vt 0.7108 0.0890 0.0000
vt 0.6573 0.1722 0.0000
vt 0.7069 0.1722 0.0000
vt 0.7281 0.1722 0.0000
vt 0.9085 0.1722 0.0000
vt 0.7069 0.0928 0.0000
vt 0.6573 0.0928 0.0000
vt 0.9085 0.0928 0.0000
vt 0.7281 0.0928 0.0000
vt 0.7108 0.1348 0.0000
vt 0.7108 0.1302 0.0000
vt 0.7242 0.1302 0.0000
vt 0.7242 0.1348 0.0000
vt 0.7242 0.3736 0.0000
vt 0.7242 0.3781 0.0000
vt 0.7108 0.3781 0.0000
vt 0.7108 0.3736 0.0000
vt 0.9085 0.1386 0.0000
vt 0.9085 0.1264 0.0000
vt 0.6573 0.1264 0.0000
vt 0.6573 0.1386 0.0000
vt 0.7069 0.1264 0.0000
vt 0.7069 0.1386 0.0000
vt 0.7281 0.1264 0.0000
vt 0.7281 0.1386 0.0000
vt 0.3031 0.8672 0.0000
vt 0.3031 0.8802 0.0000
vt 0.0170 0.8802 0.0000
vt 0.0170 0.8672 0.0000
vt 0.3031 0.8611 0.0000
vt 0.0170 0.8611 0.0000
vt 0.0170 0.8481 0.0000
vt 0.3031 0.8481 0.0000
vt 0.0108 0.8802 0.0000
vt 0.0108 0.8672 0.0000
vt 0.3031 0.8863 0.0000
vt 0.0170 0.8863 0.0000
vt 0.3093 0.8672 0.0000
vt 0.3093 0.8802 0.0000
# 287 texture coords

o Box001
g Box001
usemtl 03___Default
s 2
f 1/1/1 2/2/2 3/3/3 4/4/4 5/5/5 
s 4
f 6/6/6 7/7/7 8/8/8 
s 8
f 1/9/1 5/10/5 9/11/9 6/6/6 
s off
f 5/5/5 4/4/4 10/12/10 11/13/11 
f 4/4/4 12/14/12 13/15/13 10/12/10 
f 12/14/12 9/11/9 14/16/14 13/15/13 
f 9/11/9 5/5/5 11/13/11 14/16/14 
f 2/17/2 1/18/1 15/19/15 16/20/16 
f 1/18/1 6/6/6 17/21/17 15/19/15 
f 6/6/6 8/8/8 18/22/16 17/21/17 
f 8/8/8 2/17/2 16/20/16 18/22/16 
f 3/23/3 2/24/2 19/25/18 20/26/19 
f 2/24/2 8/8/8 21/27/20 19/25/18 
f 8/8/8 7/7/7 22/28/21 21/27/20 
f 7/7/7 3/23/3 20/26/19 22/28/21 
s 4
f 6/6/6 9/11/9 12/14/12 7/7/7 
s off
f 7/7/7 12/14/12 23/29/19 24/30/19 
f 12/14/12 4/31/4 25/32/19 23/29/19 
f 3/23/3 26/33/19 25/32/19 4/31/4 
f 3/23/3 7/7/7 24/30/19 26/33/19 
s 2
f 27/34/5 28/35/9 29/36/6 30/37/1 
s 4
f 31/38/4 32/39/22 33/40/23 34/41/12 
s 8
f 27/34/5 30/42/1 32/43/22 31/38/4 
s 16
f 30/44/1 29/45/6 33/46/23 32/47/22 
s 32
f 29/45/6 28/35/9 34/41/12 33/46/23 
s 64
f 28/35/9 27/34/5 31/38/4 34/41/12 
s 1
f 35/48/1 36/49/22 37/50/4 38/51/5 
s 2
f 39/52/6 40/53/23 36/49/22 35/54/1 
s 1
f 41/55/9 42/56/12 40/53/23 39/57/6 
s 2
f 38/58/5 37/50/4 42/56/12 41/59/9 
s 4
f 35/54/1 43/60/24 44/61/25 39/52/6 
f 41/62/9 45/63/26 46/64/27 38/65/5 
f 40/53/23 47/66/28 48/67/29 36/49/22 
f 37/50/4 49/68/30 50/69/31 42/56/12 
f 43/60/24 35/54/1 38/65/5 46/64/27 
f 39/52/6 44/61/25 45/63/26 41/62/9 
f 42/56/12 50/69/31 47/66/28 40/53/23 
f 49/68/30 37/50/4 36/49/22 48/67/29 
s 1
f 43/60/24 46/64/27 49/70/30 48/71/29 
f 44/61/25 47/72/28 50/73/31 45/63/26 
s 2
f 45/63/26 50/73/31 49/70/30 46/64/27 
f 43/60/24 48/71/29 47/72/28 44/61/25 
f 51/74/32 52/75/33 53/76/34 54/77/35 
s 4
f 55/78/36 56/79/37 57/80/38 58/81/39 
s 8
f 51/82/32 54/83/35 56/79/37 55/78/36 
s 16
f 54/77/35 53/76/34 57/80/38 56/79/37 
s 32
f 53/84/34 52/85/33 58/81/39 57/80/38 
s 64
f 52/86/33 51/87/32 55/78/36 58/81/39 
s 1
f 59/88/1 60/89/22 61/90/4 62/91/5 
s 2
f 63/92/6 64/93/23 60/89/22 59/94/1 
s 1
f 65/95/9 66/96/12 64/93/23 63/97/6 
s 2
f 62/98/5 61/90/4 66/96/12 65/99/9 
s 4
f 59/100/1 67/101/24 68/102/25 63/103/6 
f 65/99/9 69/104/26 70/105/27 62/98/5 
f 64/93/23 71/106/28 72/107/29 60/89/22 
f 61/90/4 73/108/30 74/109/31 66/96/12 
f 67/101/24 59/100/1 62/98/5 70/105/27 
f 63/103/6 68/102/25 69/104/26 65/99/9 
f 66/96/12 74/109/31 71/106/28 64/93/23 
f 73/108/30 61/90/4 60/89/22 72/107/29 
s 1
f 67/110/24 70/111/27 73/108/30 72/107/29 
f 68/112/25 71/106/28 74/109/31 69/113/26 
s 2
f 69/113/26 74/109/31 73/108/30 70/111/27 
f 67/110/24 72/107/29 71/106/28 68/112/25 
s 1
f 75/114/5 76/115/40 77/116/22 78/117/4 
s 2
f 79/118/9 80/119/6 76/120/40 75/114/5 
s 1
f 81/121/12 82/122/23 80/123/6 79/118/9 
s 2
f 78/117/4 77/124/22 82/125/23 81/121/12 
s 4
f 75/114/5 83/126/41 84/127/42 79/118/9 
f 81/121/12 85/128/43 86/129/44 78/117/4 
f 80/119/6 87/130/45 88/131/46 76/120/40 
f 77/132/22 89/133/47 90/134/48 82/135/23 
f 83/126/41 75/114/5 78/117/4 86/129/44 
f 79/118/9 84/127/42 85/128/43 81/121/12 
f 82/135/23 90/134/48 87/130/45 80/119/6 
f 89/133/47 77/132/22 76/120/40 88/131/46 
s 1
f 83/126/41 86/129/44 89/136/47 88/137/46 
f 84/127/42 87/138/45 90/139/48 85/128/43 
s 2
f 85/128/43 90/139/48 89/136/47 86/129/44 
f 83/126/41 88/137/46 87/138/45 84/127/42 
s 1
f 91/140/49 92/141/49 93/142/50 94/143/50 
s 2
f 95/144/23 96/145/12 97/146/4 98/147/22 
s 1
f 99/148/51 100/149/51 101/150/52 102/151/52 
s 2
f 103/152/1 104/153/5 105/154/9 106/155/6 
s 4
f 98/147/22 107/156/47 108/157/48 95/144/23 
f 106/155/6 109/158/45 110/159/46 103/152/1 
f 96/160/12 111/161/43 112/162/44 97/163/4 
f 104/153/5 113/164/41 114/165/42 105/154/9 
f 94/143/50 93/142/50 115/166/47 116/167/46 
f 102/151/52 101/150/52 117/168/45 118/169/48 
f 100/170/51 99/171/51 119/172/43 120/173/42 
f 92/174/49 91/175/49 121/176/41 122/177/44 
s 1
f 108/157/48 107/156/47 112/178/44 111/179/43 
f 110/159/46 109/158/45 114/180/42 113/181/41 
f 123/182/49 104/183/5 103/152/1 124/184/53 
f 125/185/50 98/147/22 97/186/4 126/187/54 
f 127/188/51 96/189/12 95/144/23 128/190/52 
f 129/191/52 106/155/6 105/192/9 130/193/51 
s 4
f 124/184/53 103/152/1 110/159/46 131/194/47 
f 132/195/46 107/156/47 98/147/22 125/185/50 
f 128/190/52 95/144/23 108/157/48 133/196/45 
f 134/197/48 109/158/45 106/155/6 129/191/52 
f 130/198/51 105/154/9 114/165/42 135/199/43 
f 136/200/42 111/161/43 96/160/12 127/201/51 
f 126/202/54 97/163/4 112/162/44 137/203/41 
f 138/204/44 113/164/41 104/153/5 123/205/49 
s 2
f 131/194/47 110/159/46 113/181/41 138/206/44 
f 137/207/41 112/178/44 107/156/47 132/195/46 
f 133/196/45 108/157/48 111/179/43 136/208/42 
f 135/209/43 114/180/42 109/158/45 134/197/48 
s 1
f 139/210/49 123/182/49 124/184/53 140/211/50 
f 141/212/50 125/185/50 126/187/54 142/213/49 
f 143/214/51 127/188/51 128/190/52 144/215/52 
f 145/216/52 129/191/52 130/193/51 146/217/51 
s 4
f 140/211/50 124/184/53 131/194/47 147/218/46 
f 148/219/47 132/195/46 125/185/50 141/212/50 
f 144/215/52 128/190/52 133/196/45 149/220/48 
f 150/221/45 134/197/48 129/191/52 145/216/52 
f 146/222/51 130/198/51 135/199/43 151/223/42 
f 152/224/43 136/200/42 127/201/51 143/225/51 
f 142/226/49 126/202/54 137/203/41 153/227/44 
f 154/228/41 138/204/44 123/205/49 139/229/49 
s 8
f 155/230/55 156/231/56 157/232/46 158/233/45 
s 1
f 159/234/57 160/235/58 156/231/56 155/230/55 
s 8
f 161/236/42 162/237/41 160/238/58 159/239/57 
f 163/240/59 164/241/60 165/242/44 166/243/43 
s 1
f 167/244/61 168/245/62 164/246/60 163/247/59 
s 8
f 169/248/48 170/249/47 168/245/62 167/244/61 
s 1
f 157/232/46 150/221/45 151/250/42 162/251/41 
f 161/252/42 154/253/41 147/218/46 158/233/45 
s 8
f 156/231/56 134/197/48 150/221/45 157/232/46 
f 158/233/45 147/218/46 131/194/47 155/230/55 
s 1
f 160/235/58 135/209/43 134/197/48 156/231/56 
f 155/230/55 131/194/47 138/206/44 159/234/57 
s 8
f 162/237/41 151/223/42 135/199/43 160/238/58 
f 159/239/57 138/204/44 154/228/41 161/236/42 
s 1
f 165/254/44 152/255/43 149/220/48 170/249/47 
f 169/248/48 148/219/47 153/256/44 166/257/43 
s 8
f 164/241/60 136/200/42 152/224/43 165/242/44 
f 166/243/43 153/227/44 137/203/41 163/240/59 
s 1
f 168/245/62 133/196/45 136/208/42 164/246/60 
f 163/247/59 137/207/41 132/195/46 167/244/61 
s 8
f 170/249/47 149/220/48 133/196/45 168/245/62 
f 167/244/61 132/195/46 148/219/47 169/248/48 
s 2
f 171/258/47 172/259/46 173/260/45 174/261/48 
f 175/262/43 176/263/42 177/264/41 178/265/44 
s 1
f 92/141/49 139/210/49 140/211/50 93/142/50 
f 94/143/50 141/212/50 142/213/49 91/140/49 
f 100/149/51 143/214/51 144/215/52 101/150/52 
f 102/151/52 145/216/52 146/217/51 99/148/51 
s 4
f 93/142/50 140/211/50 147/218/46 115/166/47 
f 116/167/46 148/219/47 141/212/50 94/143/50 
f 101/150/52 144/215/52 149/220/48 117/168/45 
f 118/169/48 150/221/45 145/216/52 102/151/52 
f 99/171/51 146/222/51 151/223/42 119/172/43 
f 120/173/42 152/224/43 143/225/51 100/170/51 
f 91/175/49 142/226/49 153/227/44 121/176/41 
f 122/177/44 154/228/41 139/229/49 92/174/49 
s 2
f 115/166/47 147/218/46 154/253/41 122/266/44 
f 121/267/41 153/256/44 148/219/47 116/167/46 
f 117/168/45 149/220/48 152/255/43 120/268/42 
f 119/269/43 151/250/42 150/221/45 118/169/48 
f 172/259/46 170/249/47 169/248/48 173/260/45 
f 174/261/48 158/233/45 157/232/46 171/258/47 
s 4
f 177/270/41 165/254/44 170/249/47 172/259/46 
f 171/258/47 157/232/46 162/251/41 178/271/44 
s 2
f 176/263/42 166/243/43 165/242/44 177/264/41 
f 178/265/44 162/237/41 161/236/42 175/262/43 
s 4
f 173/260/45 169/248/48 166/257/43 176/272/42 
f 175/273/43 161/252/42 158/233/45 174/261/48 
s 1
f 122/177/44 121/176/41 176/263/42 175/262/43 
s 8
f 121/267/41 116/167/46 173/260/45 176/272/42 
s 1
f 116/167/46 115/166/47 174/261/48 173/260/45 
s 8
f 115/166/47 122/266/44 175/273/43 174/261/48 
s 1
f 118/169/48 117/168/45 172/259/46 171/258/47 
s 8
f 117/168/45 120/268/42 177/270/41 172/259/46 
s 1
f 120/173/42 119/172/43 178/265/44 177/264/41 
s 8
f 119/269/43 118/169/48 171/258/47 178/271/44 
s 2
f 179/34/5 180/35/9 181/36/6 182/37/1 
s 4
f 183/38/4 184/39/22 185/40/23 186/41/12 
s 8
f 179/34/5 182/42/1 184/43/22 183/38/4 
s 16
f 182/44/1 181/45/6 185/46/23 184/47/22 
s 32
f 181/45/6 180/35/9 186/41/12 185/46/23 
s 64
f 180/35/9 179/34/5 183/38/4 186/41/12 
s 2
f 187/34/5 188/35/9 189/36/6 190/37/1 
s 4
f 191/38/4 192/39/22 193/40/23 194/41/12 
s 8
f 187/34/5 190/42/1 192/43/22 191/38/4 
s 16
f 190/44/1 189/45/6 193/46/23 192/47/22 
s 32
f 189/45/6 188/35/9 194/41/12 193/46/23 
s 64
f 188/35/9 187/34/5 191/38/4 194/41/12 
s 2
f 195/34/5 196/35/9 197/36/6 198/37/1 
s 4
f 199/38/4 200/39/22 201/40/23 202/41/12 
s 8
f 195/34/5 198/42/1 200/43/22 199/38/4 
s 16
f 198/44/1 197/45/6 201/46/23 200/47/22 
s 32
f 197/45/6 196/35/9 202/41/12 201/46/23 
s 64
f 196/35/9 195/34/5 199/38/4 202/41/12 
s 2
f 203/274/1 204/275/5 205/276/9 206/277/6 
s 4
f 207/278/22 208/279/23 209/280/12 210/281/4 
s 8
f 203/274/1 206/277/6 208/279/23 207/278/22 
s 16
f 206/277/6 205/276/9 209/282/12 208/283/23 
s 32
f 205/276/9 204/275/5 210/284/4 209/285/12 
s 64
f 204/275/5 203/274/1 207/286/22 210/287/4 
s 2
f 211/274/6 212/275/1 213/276/5 214/277/9 
s 4
f 215/278/23 216/279/12 217/280/4 218/281/22 
s 8
f 211/274/6 214/277/9 216/279/12 215/278/23 
s 16
f 214/277/9 213/276/5 217/282/4 216/283/12 
s 32
f 213/276/5 212/275/1 218/284/22 217/285/4 
s 64
f 212/275/1 211/274/6 215/286/23 218/287/22 
s 2
f 219/274/6 220/275/1 221/276/5 222/277/9 
s 4
f 223/278/23 224/279/12 225/280/4 226/281/22 
s 8
f 219/274/6 222/277/9 224/279/12 223/278/23 
s 16
f 222/277/9 221/276/5 225/282/4 224/283/12 
s 32
f 221/276/5 220/275/1 226/284/22 225/285/4 
s 64
f 220/275/1 219/274/6 223/286/23 226/287/22 
s 2
f 227/274/1 228/275/5 229/276/9 230/277/6 
s 4
f 231/278/22 232/279/23 233/280/12 234/281/4 
s 8
f 227/274/1 230/277/6 232/279/23 231/278/22 
s 16
f 230/277/6 229/276/9 233/282/12 232/283/23 
s 32
f 229/276/9 228/275/5 234/284/4 233/285/12 
s 64
f 228/275/5 227/274/1 231/286/22 234/287/4 
# 219 polygons - 1 triangles

#
# object Object001
#

v  -39.8473 82.3188 -151.2423
v  -39.8473 12.0628 -151.2423
v  -39.8473 12.0628 -39.9801
v  -39.8473 82.3188 -39.9801
v  7.0244 77.8834 198.7341
v  7.0244 33.7021 198.7341
v  35.3104 33.7021 198.7341
v  35.3104 77.8834 198.7341
v  40.6186 69.6664 174.0171
v  40.6186 25.4851 174.0171
v  40.6186 25.4851 138.3870
v  40.6186 69.6664 138.3870
# 12 vertices

vn -1.0000 -0.0000 -0.0000
vn 0.0000 0.0000 1.0000
vn 1.0000 0.0000 -0.0000
# 3 vertex normals

vt 0.4827 0.9802 0.0000
vt 0.4827 0.8401 0.0000
vt 0.6229 0.8401 0.0000
vt 0.6229 0.9802 0.0000
# 4 texture coords

o Object001
g Object001
usemtl 04___Default
s 1
f 235/288/63 236/289/63 237/290/63 238/291/63 
f 239/288/64 240/289/64 241/290/64 242/291/64 
f 243/288/65 244/289/65 245/290/65 246/291/65 
# 3 polygons

