#
## Alias OBJ Material File
# Exported from SketchUp, (c) 2000-2012 Trimble Navigation Limited

newmtl _auto_
Ka 0.000000 0.000000 0.000000
Kd 1.000000 1.000000 1.000000
Ks 0.330000 0.330000 0.330000

newmtl FrontColor
Ka 0.000000 0.000000 0.000000
Kd 1.000000 1.000000 1.000000
Ks 0.330000 0.330000 0.330000

newmtl Celery
Ka 0.000000 0.000000 0.000000
Kd 0.654902 0.611765 0.454902
Ks 0.330000 0.330000 0.330000
map_Kd https://cdn.glitch.com/bc66fcc1-f39e-440f-ac32-680b47c09057%2FCelery.jpg?1534500720956

newmtl Carpet_Diamond_Red
Ka 0.000000 0.000000 0.000000
Kd 0.756863 0.321569 0.254902
Ks 0.330000 0.330000 0.330000
map_Kd https://cdn.glitch.com/bc66fcc1-f39e-440f-ac32-680b47c09057%2FCarpet_Diamond_Red.jpg?1534500711535

newmtl _Beige_
Ka 0.000000 0.000000 0.000000
Kd 0.803922 0.670588 0.411765
Ks 0.330000 0.330000 0.330000

